Protection species (plSpecies),Protection genus (plGenus),Protection family (plFamily),Pest species (peSpecies),Pest genus (psGenus),Pest family (peFamily),Crop species (crSpecies),Crop genus (crGenus),Crop family (crFamily)
Abies sibirica,Abies,Pinaceae,Spodoptera littoralis,Spodoptera,Noctuidae,CropS,CropG,CropF
Acanthospermum hispidum,Acanthospermum,Asteraceae,Spodoptera frugiperda,Spodoptera,Noctuidae,CropS,CropG,CropF
Acer campestre,Acer,Sapindaceae,Spodoptera littoralis,Spodoptera,Noctuidae,CropS,CropG,CropF
Acer capillipes,Acer,Sapindaceae,Spodoptera littoralis,Spodoptera,Noctuidae,CropS,CropG,CropF
Acer platanoides,Acer,Sapindaceae,Spodoptera littoralis,Spodoptera,Noctuidae,CropS,CropG,CropF
Achillea ageratum,Achillea,Asteraceae,Spodoptera littoralis,Spodoptera,Noctuidae,CropS,CropG,CropF
Achillea collina,Achillea,Asteraceae,Spodoptera littoralis,Spodoptera,Noctuidae,CropS,CropG,CropF
Achillea nobilis,Achillea,Asteraceae,Spodoptera littoralis,Spodoptera,Noctuidae,CropS,CropG,CropF
Achillea ptarmica,Achillea,Asteraceae,Spodoptera littoralis,Spodoptera,Noctuidae,CropS,CropG,CropF
Achyrocline satureioides,Achyrocline,Asteraceae,Spodoptera frugiperda,Spodoptera,Noctuidae,CropS,CropG,CropF
Aconitum apetalum,Aconitum,Ranunculaceae,Spodoptera exigua,Spodoptera,Noctuidae,CropS,CropG,CropF
Aconitum franchetii,Aconitum,Ranunculaceae,Spodoptera exigua,Spodoptera,Noctuidae,CropS,CropG,CropF
Aconitum kusnezoffii,Aconitum,Ranunculaceae,Spodoptera litura,Spodoptera,Noctuidae,CropS,CropG,CropF
Acorus calamus,Acorus,Acoraceae,Spodoptera littoralis,Spodoptera,Noctuidae,CropS,CropG,CropF
Acorus calamus,Acorus,Acoraceae,Spodoptera litura,Spodoptera,Noctuidae,CropS,CropG,CropF
Aegopodium podagraria,Aegopodium,Apiaceae,Spodoptera littoralis,Spodoptera,Noctuidae,CropS,CropG,CropF
Aeollanthus suaveolens,Aeollanthus,Lamiaceae,Spodoptera frugiperda,Spodoptera,Noctuidae,CropS,CropG,CropF
Ageratum conyzoides,Ageratum,Asteraceae,Spodoptera frugiperda,Spodoptera,Noctuidae,CropS,CropG,CropF
Ageratum fastigiatum,Ageratum,Asteraceae,Spodoptera frugiperda,Spodoptera,Noctuidae,CropS,CropG,CropF
Aglaia odoratissima,Aglaia,Meliaceae,Spodoptera frugiperda,Spodoptera,Noctuidae,CropS,CropG,CropF
Aglaia tomentosa,Aglaia,Meliaceae,Spodoptera frugiperda,Spodoptera,Noctuidae,CropS,CropG,CropF
Ailanthus altissima,Ailanthus,Simaroubaceae,Spodoptera frugiperda,Spodoptera,Noctuidae,CropS,CropG,CropF
Ailanthus altissima,Ailanthus,Simaroubaceae,Spodoptera littoralis,Spodoptera,Noctuidae,CropS,CropG,CropF
Ajuga chamaepitys,Ajuga,Lamiaceae,Spodoptera littoralis,Spodoptera,Noctuidae,CropS,CropG,CropF
Ajuga iva,Ajuga,Lamiaceae,Spodoptera littoralis,Spodoptera,Noctuidae,CropS,CropG,CropF
Ajuga reptans,Ajuga,Lamiaceae,Spodoptera littoralis,Spodoptera,Noctuidae,CropS,CropG,CropF
Albizia saman,Albizia,Fabaceae,Helicoverpa armigera,Helicoverpa,Noctuidae,CropS,CropG,CropF
Albizia saman,Albizia,Fabaceae,Spodoptera litura,Spodoptera,Noctuidae,CropS,CropG,CropF
Alchornea glandulosa,Alchornea,Euphorbiaceae,Spodoptera frugiperda,Spodoptera,Noctuidae,CropS,CropG,CropF
Allium sativum,Allium,Amaryllidaceae,Anticarsia gemmatalis,Anticarsia,Noctuidae,CropFabaS,CropFabaG,Fabaceae
Allium sativum,Allium,Amaryllidaceae,Trichoplusia ni,Trichoplusia,Noctuidae,CropBrasS,CropBrasG,Brassicaceae
Allium sativum,Allium,Amaryllidaceae,Trichoplusia sp.,Trichoplusia,Noctuidae,Brassica oleracea,Brassica,Brassicaceae
Aloe vera,Aloe,Asphodelaceae,Spodoptera frugiperda,Spodoptera,Noctuidae,CropS,CropG,CropF
Aloysia citrodora,Aloysia,Verbenaceae,Spodoptera littoralis,Spodoptera,Noctuidae,CropS,CropG,CropF
Alpinia galanga,Alpinia,Zingiberaceae,Spodoptera litura,Spodoptera,Noctuidae,CropS,CropG,CropF
Alvaradoa subovata,Alvaradoa,Picramniaceae,Spodoptera frugiperda,Spodoptera,Noctuidae,CropS,CropG,CropF
Ambrosia artemisiifolia,Ambrosia,Asteraceae,Spodoptera littoralis,Spodoptera,Noctuidae,CropS,CropG,CropF
Amyris balsamifera,Amyris,Rutaceae,Spodoptera littoralis,Spodoptera,Noctuidae,CropS,CropG,CropF
Anabasis setifera,Anabasis,Amaranthaceae,Spodoptera littoralis,Spodoptera,Noctuidae,CropS,CropG,CropF
Anacardium occidentale,Anacardium,Anacardiaceae,Spodoptera frugiperda,Spodoptera,Noctuidae,CropS,CropG,CropF
Anethum graveolens,Anethum,Apiaceae,Pseudaletia unipuncta,Pseudaletia,Noctuidae,CropPoacS,CropPoacG,Poaceae
Anethum graveolens,Anethum,Apiaceae,Spodoptera littoralis,Spodoptera,Noctuidae,CropS,CropG,CropF
Angelica archangelica,Angelica,Apiaceae,Spodoptera littoralis,Spodoptera,Noctuidae,CropS,CropG,CropF
Annona atemoya,Annona,Annonaceae,Trichoplusia ni,Trichoplusia,Noctuidae,CropBrasS,CropBrasG,Brassicaceae
Annona cacans,Annona,Annonaceae,Spodoptera frugiperda,Spodoptera,Noctuidae,CropS,CropG,CropF
Annona cherimola,Annona,Annonaceae,Spodoptera frugiperda,Spodoptera,Noctuidae,CropS,CropG,CropF
Annona coriacea,Annona,Annonaceae,Spodoptera frugiperda,Spodoptera,Noctuidae,CropS,CropG,CropF
Annona dioica,Annona,Annonaceae,Spodoptera frugiperda,Spodoptera,Noctuidae,CropS,CropG,CropF
Annona dolabripetala,Annona,Annonaceae,Spodoptera frugiperda,Spodoptera,Noctuidae,CropS,CropG,CropF
Annona emarginata,Annona,Annonaceae,Spodoptera frugiperda,Spodoptera,Noctuidae,CropS,CropG,CropF
Annona montana,Annona,Annonaceae,Spodoptera frugiperda,Spodoptera,Noctuidae,CropS,CropG,CropF
Annona muricata,Annona,Annonaceae,Anticarsia gemmatalis,Anticarsia,Noctuidae,CropFabaS,CropFabaG,Fabaceae
Annona muricata,Annona,Annonaceae,Pseudaletia sequax,Pseudaletia,Noctuidae,CropPoacS,CropPoacG,Poaceae
Annona muricata,Annona,Annonaceae,Spodoptera frugiperda,Spodoptera,Noctuidae,CropS,CropG,CropF
Annona muricata,Annona,Annonaceae,Spodoptera litura,Spodoptera,Noctuidae,CropS,CropG,CropF
Annona reticulata,Annona,Annonaceae,Spodoptera frugiperda,Spodoptera,Noctuidae,CropS,CropG,CropF
Annona squamosa,Annona,Annonaceae,Helicoverpa armigera,Helicoverpa,Noctuidae,CropS,CropG,CropF
Annona squamosa,Annona,Annonaceae,Spodoptera frugiperda,Spodoptera,Noctuidae,CropS,CropG,CropF
Annona squamosa,Annona,Annonaceae,Spodoptera litura,Spodoptera,Noctuidae,CropS,CropG,CropF
Annona squamosa,Annona,Annonaceae,Trichoplusia ni,Trichoplusia,Noctuidae,CropBrasS,CropBrasG,Brassicaceae
Apium nodiflorum,Apium,Apiaceae,Spodoptera littoralis,Spodoptera,Noctuidae,CropS,CropG,CropF
Arctium lappa,Arctium,Asteraceae,Spodoptera littoralis,Spodoptera,Noctuidae,CropS,CropG,CropF
Arisarum vulgare,Arisarum,Araceae,Spodoptera littoralis,Spodoptera,Noctuidae,CropS,CropG,CropF
Aristolochia acuminata,Aristolochia,Aristolochiaceae,Spodoptera litura,Spodoptera,Noctuidae,CropS,CropG,CropF
Artemisia abrotanum,Artemisia,Asteraceae,Spodoptera littoralis,Spodoptera,Noctuidae,CropS,CropG,CropF
Artemisia absinthium,Artemisia,Asteraceae,Spodoptera littoralis,Spodoptera,Noctuidae,CropS,CropG,CropF
Artemisia absinthium,Artemisia,Asteraceae,Spodoptera litura,Spodoptera,Noctuidae,CropS,CropG,CropF
Artemisia annua,Artemisia,Asteraceae,Helicoverpa armigera,Helicoverpa,Noctuidae,CropS,CropG,CropF
Artemisia apiacea,Artemisia,Asteraceae,Agrotis spp.,Agrotis,Noctuidae,CropS,CropG,CropF
Artemisia argyi,Artemisia,Asteraceae,Spodoptera litura,Spodoptera,Noctuidae,CropS,CropG,CropF
Artemisia campestris,Artemisia,Asteraceae,Spodoptera littoralis,Spodoptera,Noctuidae,CropS,CropG,CropF
Artemisia herba-alba,Artemisia,Asteraceae,Spodoptera littoralis,Spodoptera,Noctuidae,CropS,CropG,CropF
Artemisia judaica,Artemisia,Asteraceae,Spodoptera littoralis,Spodoptera,Noctuidae,CropS,CropG,CropF
Artemisia verlotiorum,Artemisia,Asteraceae,Spodoptera frugiperda,Spodoptera,Noctuidae,CropS,CropG,CropF
Artemisia vulgaris,Artemisia,Asteraceae,Spodoptera littoralis,Spodoptera,Noctuidae,CropS,CropG,CropF
Asarum europaeum,Asarum,Aristolochiaceae,Spodoptera littoralis,Spodoptera,Noctuidae,CropS,CropG,CropF
Asparagus officinalis,Asparagus,Asparagaceae,Spodoptera littoralis,Spodoptera,Noctuidae,CropS,CropG,CropF
Asplenium platyneuron,Asplenium,Aspleniaceae,Spodoptera frugiperda,Spodoptera,Noctuidae,CropS,CropG,CropF
Astragalus chinensis,Astragalus,Fabaceae,Spodoptera littoralis,Spodoptera,Noctuidae,CropS,CropG,CropF
Astragalus glycyphylloides,Astragalus,Fabaceae,Spodoptera littoralis,Spodoptera,Noctuidae,CropS,CropG,CropF
Astragalus glycyphyllos,Astragalus,Fabaceae,Spodoptera littoralis,Spodoptera,Noctuidae,CropS,CropG,CropF
Astrantia major,Astrantia,Apiaceae,Spodoptera littoralis,Spodoptera,Noctuidae,CropS,CropG,CropF
Atalantia monophylla,Atalantia,Rutaceae,Spodoptera litura,Spodoptera,Noctuidae,CropS,CropG,CropF
Aucklandia costus,Aucklandia,Asteraceae,Spodoptera litura,Spodoptera,Noctuidae,CropS,CropG,CropF
Azadirachta indica,Azadirachta,Meliaceae,Agrotis spp.,Agrotis,Noctuidae,Zea mays,Zea,Poaceae
Azadirachta indica,Azadirachta,Meliaceae,Busseola fusca,Busseola,Noctuidae,Zea mays,Zea,Poaceae
Azadirachta indica,Azadirachta,Meliaceae,Busseola sp.,Busseola,Noctuidae,Sorghum bicolor,Sorghum,Poaceae
Azadirachta indica,Azadirachta,Meliaceae,Busseola sp.,Busseola,Noctuidae,Zea mays,Zea,Poaceae
Azadirachta indica,Azadirachta,Meliaceae,Chrysodeixis chalcites,Chrysodeixis,Noctuidae,CropS,CropG,CropF
Azadirachta indica,Azadirachta,Meliaceae,Diparopsis watersi,Diparopsis,Noctuidae,Gossypium hirsutum,Gossypium,Malvaceae
Azadirachta indica,Azadirachta,Meliaceae,Helicoverpa armigera,Helicoverpa,Noctuidae,CropS,CropG,CropF
Azadirachta indica,Azadirachta,Meliaceae,Helicoverpa armigera,Helicoverpa,Noctuidae,Cicer arietinum,Cicer,Fabaceae
Azadirachta indica,Azadirachta,Meliaceae,Helicoverpa armigera,Helicoverpa,Noctuidae,Gossypium hirsutum,Gossypium,Malvaceae
Azadirachta indica,Azadirachta,Meliaceae,Helicoverpa armigera,Helicoverpa,Noctuidae,Solanum lycopersicum,Solanum,Solanaceae
Azadirachta indica,Azadirachta,Meliaceae,Helicoverpa zea,Helicoverpa,Noctuidae,CropS,CropG,CropF
Azadirachta indica,Azadirachta,Meliaceae,Heliothis virescens,Heliothis,Noctuidae,CropS,CropG,CropF
Azadirachta indica,Azadirachta,Meliaceae,Mamestra brassicae,Mamestra,Noctuidae,CropS,CropG,CropF
Azadirachta indica,Azadirachta,Meliaceae,Mythimna separata,Mythimna,Noctuidae,CropPoacS,CropPoacG,Poaceae
Azadirachta indica,Azadirachta,Meliaceae,Sesamia calamistis,Sesamia,Noctuidae,Sorghum bicolor,Sorghum,Poaceae
Azadirachta indica,Azadirachta,Meliaceae,Spodoptera exempta,Spodoptera,Noctuidae,CropS,CropG,CropF
Azadirachta indica,Azadirachta,Meliaceae,Spodoptera exigua,Spodoptera,Noctuidae,CropS,CropG,CropF
Azadirachta indica,Azadirachta,Meliaceae,Spodoptera frugiperda,Spodoptera,Noctuidae,CropS,CropG,CropF
Azadirachta indica,Azadirachta,Meliaceae,Spodoptera frugiperda,Spodoptera,Noctuidae,Zea mays,Zea,Poaceae
Azadirachta indica,Azadirachta,Meliaceae,Spodoptera littoralis,Spodoptera,Noctuidae,Brassica oleracea,Brassica,Brassicaceae
Azadirachta indica,Azadirachta,Meliaceae,Spodoptera littoralis,Spodoptera,Noctuidae,CropS,CropG,CropF
Azadirachta indica,Azadirachta,Meliaceae,Spodoptera littoralis,Spodoptera,Noctuidae,Abelmoschus esculentus,Abelmoschus,Malvaceae
Azadirachta indica,Azadirachta,Meliaceae,Spodoptera litura,Spodoptera,Noctuidae,CropS,CropG,CropF
Azadirachta indica,Azadirachta,Meliaceae,Spodoptera spp.,Spodoptera,Noctuidae,Zea mays,Zea,Poaceae
Azadirachta indica,Azadirachta,Meliaceae,Trichoplusia ni,Trichoplusia,Noctuidae,CropBrasS,CropBrasG,Brassicaceae
Baccharis coridifolia,Baccharis,Asteraceae,Spodoptera frugiperda,Spodoptera,Noctuidae,CropS,CropG,CropF
Baccharis flabellata,Baccharis,Asteraceae,Spodoptera frugiperda,Spodoptera,Noctuidae,CropS,CropG,CropF
Baccharis genistelloides,Baccharis,Asteraceae,Spodoptera frugiperda,Spodoptera,Noctuidae,CropS,CropG,CropF
Baccharis salicina,Baccharis,Asteraceae,Spodoptera littoralis,Spodoptera,Noctuidae,CropS,CropG,CropF
Ballota hirsuta,Ballota,Lamiaceae,Spodoptera littoralis,Spodoptera,Noctuidae,CropS,CropG,CropF
Bauhinia forficata,Bauhinia,Fabaceae,Spodoptera frugiperda,Spodoptera,Noctuidae,CropS,CropG,CropF
Bituminaria bituminosa,Bituminaria,Fabaceae,Spodoptera littoralis,Spodoptera,Noctuidae,CropS,CropG,CropF
Bobgunnia madagascariensis,Bobgunnia,Fabaceae,Helicoverpa zea,Helicoverpa,Noctuidae,CropS,CropG,CropF
Bobgunnia madagascariensis,Bobgunnia,Fabaceae,Heliothis virescens,Heliothis,Noctuidae,CropS,CropG,CropF
Borago officinalis,Borago,Boraginaceae,Spodoptera littoralis,Spodoptera,Noctuidae,CropS,CropG,CropF
Breynia retusa,Breynia,Phyllanthaceae,Spodoptera litura,Spodoptera,Noctuidae,CropS,CropG,CropF
Bryonia dioica,Bryonia,Cucurbitaceae,Spodoptera littoralis,Spodoptera,Noctuidae,CropS,CropG,CropF
Buddleja davidii,Buddleja,Scrophulariaceae,Spodoptera littoralis,Spodoptera,Noctuidae,CropS,CropG,CropF
Buddleja madagascariensis,Buddleja,Scrophulariaceae,Spodoptera littoralis,Spodoptera,Noctuidae,CropS,CropG,CropF
Buphthalmum salicifolium,Buphthalmum,Asteraceae,Spodoptera littoralis,Spodoptera,Noctuidae,CropS,CropG,CropF
Bupleurum falcatum,Bupleurum,Apiaceae,Spodoptera littoralis,Spodoptera,Noctuidae,CropS,CropG,CropF
Bursera copallifera,Bursera,Burseraceae,Spodoptera frugiperda,Spodoptera,Noctuidae,CropS,CropG,CropF
Bursera lancifolia,Bursera,Burseraceae,Spodoptera frugiperda,Spodoptera,Noctuidae,CropS,CropG,CropF
Cabralea canjerana,Cabralea,Meliaceae,Spodoptera frugiperda,Spodoptera,Noctuidae,CropS,CropG,CropF
Calceolaria talcana,Calceolaria,Calceolariaceae ,Spodoptera frugiperda,Spodoptera,Noctuidae,CropS,CropG,CropF
Callistemon viminalis,Callistemon,Myrtaceae,Chrysodeixis chalcites,Chrysodeixis,Noctuidae,CropS,CropG,CropF
Calotropis gigantea,Calotropis,Apocynaceae,Helicoverpa armigera,Helicoverpa,Noctuidae,CropS,CropG,CropF
Calotropis gigantea,Calotropis,Apocynaceae,Spodoptera litura,Spodoptera,Noctuidae,CropS,CropG,CropF
Calotropis procera,Calotropis,Apocynaceae,Spodoptera frugiperda,Spodoptera,Noctuidae,CropS,CropG,CropF
Calotropis procera,Calotropis,Apocynaceae,Spodoptera littoralis,Spodoptera,Noctuidae,CropS,CropG,CropF
Calycophyllum spruceanum,Calycophyllum,Rubiaceae,Spodoptera frugiperda,Spodoptera,Noctuidae,CropS,CropG,CropF
Camellia sinensis,Camellia,Theaceae,Spodoptera littoralis,Spodoptera,Noctuidae,CropS,CropG,CropF
Campanula rapunculoides,Campanula,Campanulaceae,Spodoptera littoralis,Spodoptera,Noctuidae,CropS,CropG,CropF
Campanula rotundifolia,Campanula,Campanulaceae,Spodoptera littoralis,Spodoptera,Noctuidae,CropS,CropG,CropF
Cannabis sativa,Cannabis,Cannabaceae,Spodoptera littoralis,Spodoptera,Noctuidae,CropS,CropG,CropF
Capsicum annuum,Capsicum,Solanaceae,Diparopsis watersi,Diparopsis,Noctuidae,Gossypium hirsutum,Gossypium,Malvaceae
Capsicum annuum,Capsicum,Solanaceae,Helicoverpa armigera,Helicoverpa,Noctuidae,Gossypium hirsutum,Gossypium,Malvaceae
Capsicum annuum,Capsicum,Solanaceae,Spodoptera littoralis,Spodoptera,Noctuidae,CropS,CropG,CropF
Capsicum annuum,Capsicum,Solanaceae,Spodoptera litura,Spodoptera,Noctuidae,CropS,CropG,CropF
Capsicum spp.,Capsicum,Solanaceae,Agrotis spp.,Agrotis,Noctuidae,Zea mays,Zea,Poaceae
Capsicum spp.,Capsicum,Solanaceae,Busseola fusca,Busseola,Noctuidae,Zea mays,Zea,Poaceae
Capsicum spp.,Capsicum,Solanaceae,Sesamia sp.,Sesamia,Noctuidae,Sorghum bicolor,Sorghum,Poaceae
Capsicum spp.,Capsicum,Solanaceae,Spodoptera spp.,Spodoptera,Noctuidae,Zea mays,Zea,Poaceae
Capsicum spp.,Capsicum,Solanaceae,Trichoplusia sp.,Trichoplusia,Noctuidae,Brassica oleracea,Brassica,Brassicaceae
Carapa procera,Carapa,Meliaceae,Diparopsis watersi,Diparopsis,Noctuidae,Gossypium hirsutum,Gossypium,Malvaceae
Carapa procera,Carapa,Meliaceae,Spodoptera frugiperda,Spodoptera,Noctuidae,CropS,CropG,CropF
Carica papaya,Carica,Caricaceae,Spodoptera frugiperda,Spodoptera,Noctuidae,CropS,CropG,CropF
Carica papaya,Carica,Caricaceae,Spodoptera littoralis,Spodoptera,Noctuidae,Brassica oleracea,Brassica,Brassicaceae
Carica papaya,Carica,Caricaceae,Spodoptera littoralis,Spodoptera,Noctuidae,Abelmoschus esculentus,Abelmoschus,Malvaceae
Carpesium abrotanoides,Carpesium,Asteraceae,Agrotis spp.,Agrotis,Noctuidae,CropS,CropG,CropF
Carpesium abrotanoides,Carpesium,Asteraceae,Anomis flava,Anomis,Noctuidae,CropMalvS,CropMalvG,Malvaceae
Carthamus lanatus,Carthamus,Asteraceae,Spodoptera littoralis,Spodoptera,Noctuidae,CropS,CropG,CropF
Carum carvi,Carum,Apiaceae,Spodoptera littoralis,Spodoptera,Noctuidae,CropS,CropG,CropF
Casimiroa edulis,Casimiroa,Rutaceae,Spodoptera littoralis,Spodoptera,Noctuidae,CropS,CropG,CropF
Castela coccinea,Castela,Simaroubaceae,Spodoptera frugiperda,Spodoptera,Noctuidae,CropS,CropG,CropF
Cedrela dugesii,Cedrela,Meliaceae,Spodoptera frugiperda,Spodoptera,Noctuidae,CropS,CropG,CropF
Cedrela salvadorensis,Cedrela,Meliaceae,Spodoptera frugiperda,Spodoptera,Noctuidae,CropS,CropG,CropF
Cedrela spp.,Cedrela,Meliaceae,Spodoptera frugiperda,Spodoptera,Noctuidae,CropS,CropG,CropF
Centaurea benedicta,Centaurea,Asteraceae,Spodoptera littoralis,Spodoptera,Noctuidae,CropS,CropG,CropF
Centaurea phrygia,Centaurea,Asteraceae,Spodoptera littoralis,Spodoptera,Noctuidae,CropS,CropG,CropF
Centaurea scabiosa,Centaurea,Asteraceae,Spodoptera littoralis,Spodoptera,Noctuidae,CropS,CropG,CropF
Ceratodon purpureus,Ceratodon,Ditricaceae,Spodoptera frugiperda,Spodoptera,Noctuidae,CropS,CropG,CropF
Cestrum parqui,Cestrum,Solanaceae,Spodoptera littoralis,Spodoptera,Noctuidae,CropS,CropG,CropF
Chaerophyllum hirsutum,Chaerophyllum,Apiaceae,Spodoptera littoralis,Spodoptera,Noctuidae,CropS,CropG,CropF
Chamaecrista nigricans,Chamaecrista,Fabaceae,Helicoverpa zea,Helicoverpa,Noctuidae,CropS,CropG,CropF
Chamaecrista nigricans,Chamaecrista,Fabaceae,Heliothis virescens,Heliothis,Noctuidae,CropS,CropG,CropF
Chenopodium bonus-henricus,Chenopodium,Amaranthaceae,Spodoptera littoralis,Spodoptera,Noctuidae,CropS,CropG,CropF
Chenopodium opulifolium,Chenopodium,Amaranthaceae,Agrotis spp.,Agrotis,Noctuidae,Zea mays,Zea,Poaceae
Chenopodium opulifolium,Chenopodium,Amaranthaceae,Busseola fusca,Busseola,Noctuidae,Zea mays,Zea,Poaceae
Chenopodium opulifolium,Chenopodium,Amaranthaceae,Spodoptera spp.,Spodoptera,Noctuidae,Zea mays,Zea,Poaceae
Chloroxylon swietenia,Chloroxylon,Rutaceae,Helicoverpa armigera,Helicoverpa,Noctuidae,CropS,CropG,CropF
Chloroxylon swietenia,Chloroxylon,Rutaceae,Spodoptera litura,Spodoptera,Noctuidae,CropS,CropG,CropF
Chromolaena chaseae,Chromolaena,Asteraceae,Spodoptera frugiperda,Spodoptera,Noctuidae,CropS,CropG,CropF
Chrysanthemum spp.,Chrysanthemum,Asteraceae,Helicoverpa armigera,Helicoverpa,Noctuidae,CropS,CropG,CropF
Chrysanthemum spp.,Chrysanthemum,Asteraceae,Spodoptera litura,Spodoptera,Noctuidae,CropS,CropG,CropF
Chukrasia tabularis,Chukrasia,Meliaceae,Spodoptera frugiperda,Spodoptera,Noctuidae,CropS,CropG,CropF
Cicer arietinum,Cicer,Fabaceae,Spodoptera frugiperda,Spodoptera,Noctuidae,CropS,CropG,CropF
Cichorium intybus,Cichorium,Asteraceae,Spodoptera littoralis,Spodoptera,Noctuidae,CropS,CropG,CropF
Cinnamomum cassia,Cinnamomum,Lauraceae,Spodoptera litura,Spodoptera,Noctuidae,CropS,CropG,CropF
Cinnamomum cassia,Cinnamomum,Lauraceae,Trichoplusia ni,Trichoplusia,Noctuidae,CropBrasS,CropBrasG,Brassicaceae
Cinnamomum glanduliferum,Cinnamomum,Lauraceae,Trichoplusia ni,Trichoplusia,Noctuidae,CropBrasS,CropBrasG,Brassicaceae
Cinnamomum verum,Cinnamomum,Lauraceae,Anticarsia gemmatalis,Anticarsia,Noctuidae,CropFabaS,CropFabaG,Fabaceae
Cinnamomum verum,Cinnamomum,Lauraceae,Spodoptera litura,Spodoptera,Noctuidae,CropS,CropG,CropF
Cipadessa baccifera,Cipadessa,Meliaceae,Spodoptera frugiperda,Spodoptera,Noctuidae,CropS,CropG,CropF
Citrullus colocynthis,Citrullus,Cucurbitaceae,Helicoverpa armigera,Helicoverpa,Noctuidae,CropS,CropG,CropF
Citrullus colocynthis,Citrullus,Cucurbitaceae,Spodoptera littoralis,Spodoptera,Noctuidae,CropS,CropG,CropF
Citrullus colocynthis,Citrullus,Cucurbitaceae,Spodoptera litura,Spodoptera,Noctuidae,CropS,CropG,CropF
Citrus × aurantium,Citrus,Rutaceae,Spodoptera frugiperda,Spodoptera,Noctuidae,CropS,CropG,CropF
Citrus × aurantium,Citrus,Rutaceae,Spodoptera littoralis,Spodoptera,Noctuidae,Capsicum annuum,Capsicum,Solanaceae
Citrus aurantiifolia,Citrus,Rutaceae,Spodoptera littoralis,Spodoptera,Noctuidae,CropS,CropG,CropF
Citrus hystrix,Citrus,Rutaceae,Spodoptera litura,Spodoptera,Noctuidae,CropS,CropG,CropF
Citrus limon,Citrus,Rutaceae,Spodoptera frugiperda,Spodoptera,Noctuidae,CropS,CropG,CropF
Citrus limon,Citrus,Rutaceae,Spodoptera littoralis,Spodoptera,Noctuidae,CropS,CropG,CropF
Citrus limon,Citrus,Rutaceae,Spodoptera litura,Spodoptera,Noctuidae,CropS,CropG,CropF
Citrus sinensis,Citrus,Rutaceae,Spodoptera frugiperda,Spodoptera,Noctuidae,CropS,CropG,CropF
Citrus sp.,Citrus,Rutaceae,Spodoptera frugiperda,Spodoptera,Noctuidae,CropS,CropG,CropF
Clematis armandii,Clematis,Ranunculaceae,Agrotis spp.,Agrotis,Noctuidae,CropS,CropG,CropF
Clematis chinensis,Clematis,Ranunculaceae,Agrotis spp.,Agrotis,Noctuidae,CropS,CropG,CropF
Clematis vitalba,Clematis,Ranunculaceae,Spodoptera littoralis,Spodoptera,Noctuidae,CropS,CropG,CropF
Cleome amblyocarpa,Cleome,Cleomaceae,Spodoptera littoralis,Spodoptera,Noctuidae,CropS,CropG,CropF
Clinopodium acinos,Clinopodium,Lamiaceae,Spodoptera littoralis,Spodoptera,Noctuidae,CropS,CropG,CropF
Clinopodium vulgare,Clinopodium,Lamiaceae,Spodoptera littoralis,Spodoptera,Noctuidae,CropS,CropG,CropF
Cocos nucifera,Cocos,Arecaceae,Spodoptera frugiperda,Spodoptera,Noctuidae,CropS,CropG,CropF
Cola nitida,Cola,Malvaceae,Spodoptera littoralis,Spodoptera,Noctuidae,CropS,CropG,CropF
Condalia microphylla,Condalia,Rhamnaceae,Spodoptera frugiperda,Spodoptera,Noctuidae,CropS,CropG,CropF
Convolvulus lineatus,Convolvulus,Convolvulaceae,Spodoptera littoralis,Spodoptera,Noctuidae,CropS,CropG,CropF
Copaifera langsdorffii,Copaifera,Fabaceae,Spodoptera frugiperda,Spodoptera,Noctuidae,CropS,CropG,CropF
Coriandrum sativum,Coriandrum,Apiaceae,Spodoptera littoralis,Spodoptera,Noctuidae,CropS,CropG,CropF
Coronilla scorpioides,Coronilla,Fabaceae,Spodoptera littoralis,Spodoptera,Noctuidae,CropS,CropG,CropF
Corymbia citriodora,Corymbia,Myrtaceae,Spodoptera frugiperda,Spodoptera,Noctuidae,CropS,CropG,CropF
Cota tinctoria,Cota,Asteraceae,Spodoptera littoralis,Spodoptera,Noctuidae,CropS,CropG,CropF
Couroupita guianensis,Couroupita,Lecythidaceae,Spodoptera litura,Spodoptera,Noctuidae,CropS,CropG,CropF
Crescentia alata,Crescentia,Bignoniaceae,Spodoptera frugiperda,Spodoptera,Noctuidae,CropS,CropG,CropF
Crithmum maritimum,Crithmum,Apiaceae,Spodoptera littoralis,Spodoptera,Noctuidae,CropS,CropG,CropF
Crithmum maritimum,Crithmum,Apiaceae,Spodoptera litura,Spodoptera,Noctuidae,CropS,CropG,CropF
Croton jatrophoides,Croton,Euphorbiaceae,Spodoptera frugiperda,Spodoptera,Noctuidae,CropS,CropG,CropF
Croton macrostachyus,Croton,Euphorbiaceae,Spodoptera frugiperda,Spodoptera,Noctuidae,Zea mays,Zea,Poaceae
Cucumis melo,Cucumis,Cucurbitaceae,Spodoptera litura,Spodoptera,Noctuidae,CropS,CropG,CropF
Cuminum cyminum,Cuminum,Apiaceae,Spodoptera littoralis,Spodoptera,Noctuidae,CropS,CropG,CropF
Cupressus sempervirens,Cupressus,Cupressaceae,Spodoptera litura,Spodoptera,Noctuidae,CropS,CropG,CropF
Curcuma longa,Curcuma,Zingiberaceae,Spodoptera frugiperda,Spodoptera,Noctuidae,CropS,CropG,CropF
Curcuma longa,Curcuma,Zingiberaceae,Spodoptera frugiperda,Spodoptera,Noctuidae,Zea mays,Zea,Poaceae
Cyanus segetum,Cyanus,Asteraceae,Spodoptera littoralis,Spodoptera,Noctuidae,CropS,CropG,CropF
Cymbopogon citratus,Cymbopogon,Poaceae,Spodoptera frugiperda,Spodoptera,Noctuidae,CropS,CropG,CropF
Cymbopogon citratus,Cymbopogon,Poaceae,Trichoplusia ni,Trichoplusia,Noctuidae,CropBrasS,CropBrasG,Brassicaceae
Cymbopogon flexuosus,Cymbopogon,Poaceae,Spodoptera frugiperda,Spodoptera,Noctuidae,CropS,CropG,CropF
Cymbopogon martini,Cymbopogon,Poaceae,Spodoptera frugiperda,Spodoptera,Noctuidae,Zea mays,Zea,Poaceae
Cymbopogon nardus,Cymbopogon,Poaceae,Spodoptera frugiperda,Spodoptera,Noctuidae,CropS,CropG,CropF
Cymbopogon nardus,Cymbopogon,Poaceae,Trichoplusia ni,Trichoplusia,Noctuidae,CropBrasS,CropBrasG,Brassicaceae
Cymbopogon winterianus,Cymbopogon,Poaceae,Spodoptera frugiperda,Spodoptera,Noctuidae,CropS,CropG,CropF
Cymbopogon winterianus,Cymbopogon,Poaceae,Spodoptera litura,Spodoptera,Noctuidae,CropS,CropG,CropF
Cynomorium coccineum,Cynomorium,Cynomoriaceae,Spodoptera littoralis,Spodoptera,Noctuidae,CropS,CropG,CropF
Daphne genkwa,Daphne,Thymelaeaceae,Agrotis spp.,Agrotis,Noctuidae,CropS,CropG,CropF
Dasiphora fruticosa,Dasiphora,Rosaceae,Spodoptera littoralis,Spodoptera,Noctuidae,CropS,CropG,CropF
Datura innoxia,Datura,Solanaceae,Helicoverpa zea,Helicoverpa,Noctuidae,CropS,CropG,CropF
Datura innoxia,Datura,Solanaceae,Heliothis virescens,Heliothis,Noctuidae,CropS,CropG,CropF
Datura metel,Datura,Solanaceae,Helicoverpa armigera,Helicoverpa,Noctuidae,CropS,CropG,CropF
Datura metel,Datura,Solanaceae,Spodoptera litura,Spodoptera,Noctuidae,CropS,CropG,CropF
Datura stramonium,Datura,Solanaceae,Spodoptera litura,Spodoptera,Noctuidae,CropS,CropG,CropF
Daucus carota,Daucus,Apiaceae,Spodoptera littoralis,Spodoptera,Noctuidae,CropS,CropG,CropF
Dichroa febrifuga,Dichroa,Hydrangeaceae,Agrotis spp.,Agrotis,Noctuidae,CropS,CropG,CropF
Dictamnus albus,Dictamnus,Rutaceae,Spodoptera littoralis,Spodoptera,Noctuidae,CropS,CropG,CropF
Dimorphandra mollis,Dimorphandra,Fabaceae,Spodoptera frugiperda,Spodoptera,Noctuidae,CropS,CropG,CropF
Dioscorea cayennensis,Dioscorea,Dioscoreaceae,Spodoptera frugiperda,Spodoptera,Noctuidae,CropS,CropG,CropF
Dioscorea dumetorum,Dioscorea,Dioscoreaceae,Anomis flava,Anomis,Noctuidae,Gossypium hirsutum,Gossypium,Malvaceae
Dioscorea dumetorum,Dioscorea,Dioscoreaceae,Diparopsis watersi,Diparopsis,Noctuidae,Gossypium hirsutum,Gossypium,Malvaceae
Dioscorea dumetorum,Dioscorea,Dioscoreaceae,Helicoverpa armigera,Helicoverpa,Noctuidae,Gossypium hirsutum,Gossypium,Malvaceae
Dioscorea dumetorum,Dioscorea,Dioscoreaceae,Spodoptera littoralis,Spodoptera,Noctuidae,Gossypium hirsutum,Gossypium,Malvaceae
Diplazium pycnocarpon,Diplazium,Athyriaceae,Spodoptera frugiperda,Spodoptera,Noctuidae,CropS,CropG,CropF
Dorycnium graecum,Dorycnium,Fabaceae,Spodoptera littoralis,Spodoptera,Noctuidae,CropS,CropG,CropF
Dracocephalum foetidum,Dracocephalum,Lamiaceae,Spodoptera littoralis,Spodoptera,Noctuidae,CropS,CropG,CropF
Dracocephalum moldavica,Dracocephalum,Lamiaceae,Spodoptera littoralis,Spodoptera,Noctuidae,CropS,CropG,CropF
Duguetia arenicola,Duguetia,Annonaceae,Spodoptera frugiperda,Spodoptera,Noctuidae,CropS,CropG,CropF
Duguetia lanceolata,Duguetia,Annonaceae,Spodoptera frugiperda,Spodoptera,Noctuidae,CropS,CropG,CropF
Dysoxylum gotadhora,Dysoxylum,Meliaceae,Spodoptera frugiperda,Spodoptera,Noctuidae,CropS,CropG,CropF
Dysoxylum malabaricum,Dysoxylum,Meliaceae,Spodoptera frugiperda,Spodoptera,Noctuidae,CropS,CropG,CropF
Dysoxylum parasiticum,Dysoxylum,Meliaceae,Spodoptera frugiperda,Spodoptera,Noctuidae,CropS,CropG,CropF
Dysoxylum spectabile,Dysoxylum,Meliaceae,Spodoptera frugiperda,Spodoptera,Noctuidae,CropS,CropG,CropF
Dysphania ambrosioides,Dysphania,Amaranthaceae,Spodoptera frugiperda,Spodoptera,Noctuidae,CropS,CropG,CropF
Dysphania ambrosioides,Dysphania,Amaranthaceae,Spodoptera frugiperda,Spodoptera,Noctuidae,Zea mays,Zea,Poaceae
Echinacea pallida,Echinacea,Asteraceae,Spodoptera littoralis,Spodoptera,Noctuidae,CropS,CropG,CropF
Echinacea purpurea,Echinacea,Asteraceae,Spodoptera littoralis,Spodoptera,Noctuidae,CropS,CropG,CropF
Echinocoryne holosericea,Echinocoryne,Asteraceae,Spodoptera frugiperda,Spodoptera,Noctuidae,CropS,CropG,CropF
Echinops sphaerocephalus,Echinops,Asteraceae,Spodoptera littoralis,Spodoptera,Noctuidae,CropS,CropG,CropF
Enterolobium contortisiliquum,Enterolobium,Fabaceae,Spodoptera frugiperda,Spodoptera,Noctuidae,CropS,CropG,CropF
Eremanthus elaeagnus,Eremanthus,Asteraceae,Spodoptera frugiperda,Spodoptera,Noctuidae,CropS,CropG,CropF
Eucalyptus camaldulensis,Eucalyptus,Myrtaceae,Spodoptera littoralis,Spodoptera,Noctuidae,CropS,CropG,CropF
Eucalyptus globulus,Eucalyptus,Myrtaceae,Spodoptera frugiperda,Spodoptera,Noctuidae,CropS,CropG,CropF
Eucalyptus globulus,Eucalyptus,Myrtaceae,Spodoptera frugiperda,Spodoptera,Noctuidae,Zea mays,Zea,Poaceae
Eucalyptus sp.,Eucalyptus,Myrtaceae,Spodoptera frugiperda,Spodoptera,Noctuidae,CropS,CropG,CropF
Eucalyptus staigeriana,Eucalyptus,Myrtaceae,Spodoptera frugiperda,Spodoptera,Noctuidae,CropS,CropG,CropF
Eupatorium cannabinum,Eupatorium,Asteraceae,Spodoptera littoralis,Spodoptera,Noctuidae,CropS,CropG,CropF
Euphorbia pulcherrima,Euphorbia,Euphorbiaceae,Spodoptera frugiperda,Spodoptera,Noctuidae,CropS,CropG,CropF
Excoecaria grahamii,Excoecaria,Euphorbiaceae,Helicoverpa zea,Helicoverpa,Noctuidae,CropS,CropG,CropF
Excoecaria grahamii,Excoecaria,Euphorbiaceae,Heliothis virescens,Heliothis,Noctuidae,CropS,CropG,CropF
Falcaria vulgaris,Falcaria,Apiaceae,Spodoptera littoralis,Spodoptera,Noctuidae,CropS,CropG,CropF
Ferula assa-foetida,Ferula,Apiaceae,Spodoptera littoralis,Spodoptera,Noctuidae,CropS,CropG,CropF
Filipendula ulmaria,Filipendula,Rosaceae,Spodoptera littoralis,Spodoptera,Noctuidae,CropS,CropG,CropF
Flourensia oolepis,Flourensia,Asteraceae,Helicoverpa gelotopoeon,Helicoverpa,Noctuidae,CropS,CropG,CropF
Flourensia oolepis,Flourensia,Asteraceae,Spodoptera frugiperda,Spodoptera,Noctuidae,CropS,CropG,CropF
Foeniculum vulgare,Foeniculum,Apiaceae,Pseudaletia unipuncta,Pseudaletia,Noctuidae,CropPoacS,CropPoacG,Poaceae
Foeniculum vulgare,Foeniculum,Apiaceae,Spodoptera frugiperda,Spodoptera,Noctuidae,CropS,CropG,CropF
Foeniculum vulgare,Foeniculum,Apiaceae,Spodoptera littoralis,Spodoptera,Noctuidae,CropS,CropG,CropF
Fridericia chica,Fridericia,Bignoniaceae,Spodoptera frugiperda,Spodoptera,Noctuidae,CropS,CropG,CropF
Galega officinalis,Galega,Fabaceae,Spodoptera littoralis,Spodoptera,Noctuidae,CropS,CropG,CropF
Galium sylvaticum,Galium,Rubiaceae,Spodoptera littoralis,Spodoptera,Noctuidae,CropS,CropG,CropF
Galium verticillatum,Galium,Rubiaceae,Spodoptera littoralis,Spodoptera,Noctuidae,CropS,CropG,CropF
Geranium rosa,Geranium,Geraniaceae,Spodoptera littoralis,Spodoptera,Noctuidae,CropS,CropG,CropF
Gilia capitata,Gilia,Polemoniaceae,Spodoptera littoralis,Spodoptera,Noctuidae,CropS,CropG,CropF
Gossypium hirsutum,Gossypium,Malvaceae,Spodoptera frugiperda,Spodoptera,Noctuidae,CropS,CropG,CropF
Grindelia hirsutula,Grindelia,Asteraceae,Spodoptera littoralis,Spodoptera,Noctuidae,CropS,CropG,CropF
Grindelia squarrosa,Grindelia,Asteraceae,Spodoptera littoralis,Spodoptera,Noctuidae,CropS,CropG,CropF
Guatteria australis,Guatteria,Annonaceae,Spodoptera frugiperda,Spodoptera,Noctuidae,CropS,CropG,CropF
Gutierrezia microcephala,Gutierrezia,Asteraceae,Spodoptera frugiperda,Spodoptera,Noctuidae,CropS,CropG,CropF
Gymnosporia senegalensis,Gymnosporia,Celastraceae,Spodoptera littoralis,Spodoptera,Noctuidae,CropS,CropG,CropF
Hedychium coronarium,Hedychium,Zingiberaceae,Spodoptera frugiperda,Spodoptera,Noctuidae,CropS,CropG,CropF
Helianthemum kahiricum,Helianthemum,Cistaceae,Spodoptera littoralis,Spodoptera,Noctuidae,CropS,CropG,CropF
Helianthemum nummularium,Helianthemum,Cistaceae,Spodoptera littoralis,Spodoptera,Noctuidae,CropS,CropG,CropF
Hepatica nobilis,Hepatica,Ranunculaceae,Spodoptera littoralis,Spodoptera,Noctuidae,CropS,CropG,CropF
Heracleum sphondylium,Heracleum,Apiaceae,Spodoptera littoralis,Spodoptera,Noctuidae,CropS,CropG,CropF
Heynea trijuga,Heynea,Meliaceae,Spodoptera frugiperda,Spodoptera,Noctuidae,CropS,CropG,CropF
Hibiscus rosa-sinensis,Hibiscus,Malvaceae,Spodoptera littoralis,Spodoptera,Noctuidae,CropS,CropG,CropF
Hura crepitans,Hura,Euphorbiaceae,Spodoptera frugiperda,Spodoptera,Noctuidae,CropS,CropG,CropF
Hypericum montanum,Hypericum,Hypericaceae,Spodoptera littoralis,Spodoptera,Noctuidae,CropS,CropG,CropF
Hypericum perforatum,Hypericum,Hypericaceae,Spodoptera littoralis,Spodoptera,Noctuidae,CropS,CropG,CropF
Hyptis suaveolens,Hyptis,Lamiaceae,Chrysodeixis chalcites,Chrysodeixis,Noctuidae,CropS,CropG,CropF
Hyptis suaveolens,Hyptis,Lamiaceae,Helicoverpa armigera,Helicoverpa,Noctuidae,Gossypium hirsutum,Gossypium,Malvaceae
Hyptis suaveolens,Hyptis,Lamiaceae,Sesamia calamistis,Sesamia,Noctuidae,Zea mays,Zea,Poaceae
Hyssopus officinalis,Hyssopus,Lamiaceae,Spodoptera littoralis,Spodoptera,Noctuidae,CropS,CropG,CropF
Hyssopus officinalis,Hyssopus,Lamiaceae,Spodoptera litura,Spodoptera,Noctuidae,CropS,CropG,CropF
Hyssopus seravschanicus,Hyssopus,Lamiaceae,Spodoptera littoralis,Spodoptera,Noctuidae,CropS,CropG,CropF
Ilex chinensis,Ilex,Aquifoliaceae,Trichoplusia ni,Trichoplusia,Noctuidae,CropBrasS,CropBrasG,Brassicaceae
Illicium lanceolatum,Illicium,Schisandraceae,Agrotis spp.,Agrotis,Noctuidae,CropS,CropG,CropF
Inula auriculata,Inula,Asteraceae,Spodoptera littoralis,Spodoptera,Noctuidae,CropS,CropG,CropF
Inula magnifica,Inula,Asteraceae,Spodoptera littoralis,Spodoptera,Noctuidae,CropS,CropG,CropF
Inula racemosa,Inula,Asteraceae,Spodoptera litura,Spodoptera,Noctuidae,CropS,CropG,CropF
Ipomoea murucoides,Ipomoea,Convolvulaceae,Spodoptera frugiperda,Spodoptera,Noctuidae,CropS,CropG,CropF
Ipomoea pauciflora,Ipomoea,Convolvulaceae,Spodoptera frugiperda,Spodoptera,Noctuidae,CropS,CropG,CropF
Jacobaea maritima,Jacobaea,Asteraceae,Spodoptera littoralis,Spodoptera,Noctuidae,CropS,CropG,CropF
Jatropha curcas,Jatropha,Euphorbiaceae,Helicoverpa armigera,Helicoverpa,Noctuidae,CropS,CropG,CropF
Jatropha curcas,Jatropha,Euphorbiaceae,Helicoverpa zea,Helicoverpa,Noctuidae,CropS,CropG,CropF
Jatropha curcas,Jatropha,Euphorbiaceae,Heliothis virescens,Heliothis,Noctuidae,CropS,CropG,CropF
Jatropha curcas,Jatropha,Euphorbiaceae,Spodoptera frugiperda,Spodoptera,Noctuidae,CropS,CropG,CropF
Jatropha curcas,Jatropha,Euphorbiaceae,Spodoptera frugiperda,Spodoptera,Noctuidae,Zea mays,Zea,Poaceae
Jatropha curcas,Jatropha,Euphorbiaceae,Spodoptera littoralis,Spodoptera,Noctuidae,CropS,CropG,CropF
Jatropha curcas,Jatropha,Euphorbiaceae,Spodoptera litura,Spodoptera,Noctuidae,CropS,CropG,CropF
Jatropha gossypiifolia,Jatropha,Euphorbiaceae,Spodoptera frugiperda,Spodoptera,Noctuidae,CropS,CropG,CropF
Juniperus communis,Juniperus,Cupressaceae,Spodoptera frugiperda,Spodoptera,Noctuidae,Zea mays,Zea,Poaceae
Juniperus communis,Juniperus,Cupressaceae,Spodoptera littoralis,Spodoptera,Noctuidae,CropS,CropG,CropF
Juniperus sabina,Juniperus,Cupressaceae,Trichoplusia ni,Trichoplusia,Noctuidae,CropBrasS,CropBrasG,Brassicaceae
Juniperus virginiana,Juniperus,Cupressaceae,Spodoptera littoralis,Spodoptera,Noctuidae,CropS,CropG,CropF
Justicia adhatoda,Justicia,Acanthaceae,Spodoptera littoralis,Spodoptera,Noctuidae,CropS,CropG,CropF
Khaya senegalensis,Khaya,Meliaceae,Helicoverpa armigera,Helicoverpa,Noctuidae,Gossypium hirsutum,Gossypium,Malvaceae
Khaya senegalensis,Khaya,Meliaceae,Spodoptera littoralis,Spodoptera,Noctuidae,CropS,CropG,CropF
Lamium galeobdolon,Lamium,Lamiaceae,Spodoptera littoralis,Spodoptera,Noctuidae,CropS,CropG,CropF
Lantana camara,Lantana,Verbenaceae,Spodoptera frugiperda,Spodoptera,Noctuidae,CropS,CropG,CropF
Lantana camara,Lantana,Verbenaceae,Spodoptera frugiperda,Spodoptera,Noctuidae,Zea mays,Zea,Poaceae
Lantana camara,Lantana,Verbenaceae,Spodoptera littoralis,Spodoptera,Noctuidae,CropS,CropG,CropF
Lantana camara,Lantana,Verbenaceae,Spodoptera litura,Spodoptera,Noctuidae,CropS,CropG,CropF
Lapsana communis,Lapsana,Asteraceae,Spodoptera littoralis,Spodoptera,Noctuidae,CropS,CropG,CropF
Lathyrus pratensis,Lathyrus,Fabaceae,Spodoptera littoralis,Spodoptera,Noctuidae,CropS,CropG,CropF
Lathyrus tuberosus,Lathyrus,Fabaceae,Spodoptera littoralis,Spodoptera,Noctuidae,CropS,CropG,CropF
Laurus novocanariensis,Laurus,Lauraceae,Spodoptera littoralis,Spodoptera,Noctuidae,CropS,CropG,CropF
Lavandula angustifolia,Lavandula,Lamiaceae,Spodoptera littoralis,Spodoptera,Noctuidae,CropS,CropG,CropF
Lavandula angustifolia,Lavandula,Lamiaceae,Spodoptera litura,Spodoptera,Noctuidae,CropS,CropG,CropF
Lavandula canariensis,Lavandula,Lamiaceae,Spodoptera littoralis,Spodoptera,Noctuidae,CropS,CropG,CropF
Lavandula latifolia,Lavandula,Lamiaceae,Spodoptera littoralis,Spodoptera,Noctuidae,CropS,CropG,CropF
Lavandula latifolia,Lavandula,Lamiaceae,Spodoptera litura,Spodoptera,Noctuidae,CropS,CropG,CropF
Lavandula stoechas,Lavandula,Lamiaceae,Spodoptera littoralis,Spodoptera,Noctuidae,CropS,CropG,CropF
Lembotropis nigricans,Lembotropis,Fabaceae,Spodoptera littoralis,Spodoptera,Noctuidae,CropS,CropG,CropF
Lepidaploa lilacina,Lepidaploa,Asteraceae,Spodoptera frugiperda,Spodoptera,Noctuidae,CropS,CropG,CropF
Lepidaploa rufogrisea,Lepidaploa,Asteraceae,Spodoptera frugiperda,Spodoptera,Noctuidae,CropS,CropG,CropF
Leuzea carthamoides,Leuzea,Asteraceae,Spodoptera littoralis,Spodoptera,Noctuidae,CropS,CropG,CropF
Levisticum officinale,Levisticum,Apiaceae,Spodoptera littoralis,Spodoptera,Noctuidae,CropS,CropG,CropF
Limnanthes alba,Limnanthes,Limnanthaceae,Spodoptera frugiperda,Spodoptera,Noctuidae,Zea mays,Zea,Poaceae
Limonia acidissima,Limonia,Rutaceae,Spodoptera litura,Spodoptera,Noctuidae,CropS,CropG,CropF
Lippia javanica,Lippia,Verbenaceae,Spodoptera frugiperda,Spodoptera,Noctuidae,CropS,CropG,CropF
Lippia multiflora,Lippia,Verbenaceae,Helicoverpa armigera,Helicoverpa,Noctuidae,Solanum lycopersicum,Solanum,Solanaceae
Lippia sidoides,Lippia,Verbenaceae,Spodoptera frugiperda,Spodoptera,Noctuidae,CropS,CropG,CropF
Litsea cubeba,Litsea,Lauraceae,Trichoplusia ni,Trichoplusia,Noctuidae,CropBrasS,CropBrasG,Brassicaceae
Litsea pungens,Litsea,Lauraceae,Trichoplusia ni,Trichoplusia,Noctuidae,CropBrasS,CropBrasG,Brassicaceae
Lobelia siphilitica,Lobelia,Campanulaceae,Spodoptera littoralis,Spodoptera,Noctuidae,CropS,CropG,CropF
Lotus corniculatus ,Lotus,Fabaceae,Spodoptera littoralis,Spodoptera,Noctuidae,CropS,CropG,CropF
Lupinus aschenbornii,Lupinus,Fabaceae,Spodoptera frugiperda,Spodoptera,Noctuidae,CropS,CropG,CropF
Lupinus montanus,Lupinus,Fabaceae,Spodoptera frugiperda,Spodoptera,Noctuidae,CropS,CropG,CropF
Lupinus stipulatus,Lupinus,Fabaceae,Spodoptera frugiperda,Spodoptera,Noctuidae,CropS,CropG,CropF
Lychnophora ericoides,Lychnophora,Asteraceae,Spodoptera frugiperda,Spodoptera,Noctuidae,CropS,CropG,CropF
Lychnophora ramosissima,Lychnophora,Asteraceae,Spodoptera frugiperda,Spodoptera,Noctuidae,CropS,CropG,CropF
Lychnophora sp.,Lychnophora,Asteraceae,Spodoptera frugiperda,Spodoptera,Noctuidae,CropS,CropG,CropF
Lycoris aurea,Lycoris,Amaryllidaceae,Agrotis spp.,Agrotis,Noctuidae,CropS,CropG,CropF
Lycoris radiata,Lycoris,Amaryllidaceae,Agrotis spp.,Agrotis,Noctuidae,CropS,CropG,CropF
Lythrum salicaria,Lythrum,Lythraceae,Spodoptera littoralis,Spodoptera,Noctuidae,CropS,CropG,CropF
Lythrum virgatum,Lythrum,Lythraceae,Spodoptera littoralis,Spodoptera,Noctuidae,CropS,CropG,CropF
Macleaya cordata,Macleaya,Papaveraceae,Arcte coerula,Arcte,Noctuidae,Boehmeria sp.,Boehmeria,Urticaceae
Macrochloa tenacissima,Macrochloa,Poaceae,Spodoptera littoralis,Spodoptera,Noctuidae,CropS,CropG,CropF
Madhuca longifolia,Madhuca,Sapotaceae,Spodoptera litura,Spodoptera,Noctuidae,CropS,CropG,CropF
Magonia pubescens,Magonia,Sapindaceae,Spodoptera frugiperda,Spodoptera,Noctuidae,CropS,CropG,CropF
Malva sylvestris,Malva,Malvaceae,Spodoptera frugiperda,Spodoptera,Noctuidae,CropS,CropG,CropF
Mangifera indica,Mangifera,Anacardiaceae,Spodoptera litura,Spodoptera,Noctuidae,CropS,CropG,CropF
Manihot esculenta,Manihot,Euphorbiaceae,Spodoptera frugiperda,Spodoptera,Noctuidae,CropS,CropG,CropF
Marrubium vulgare,Marrubium,Lamiaceae,Spodoptera littoralis,Spodoptera,Noctuidae,CropS,CropG,CropF
Matricaria chamomilla,Matricaria,Asteraceae,Spodoptera litura,Spodoptera,Noctuidae,CropS,CropG,CropF
Maytenus boaria,Maytenus,Celastraceae,Spodoptera frugiperda,Spodoptera,Noctuidae,CropS,CropG,CropF
Maytenus disticha,Maytenus,Celastraceae,Spodoptera frugiperda,Spodoptera,Noctuidae,CropS,CropG,CropF
Maytenus sp.,Maytenus,Celastraceae,Spodoptera frugiperda,Spodoptera,Noctuidae,CropS,CropG,CropF
Maytenus spp.,Maytenus,Celastraceae,Spodoptera frugiperda,Spodoptera,Noctuidae,CropS,CropG,CropF
Medicago falcata,Medicago,Fabaceae,Spodoptera littoralis,Spodoptera,Noctuidae,CropS,CropG,CropF
Melaleuca alternifolia,Melaleuca,Myrtaceae,Spodoptera frugiperda,Spodoptera,Noctuidae,Zea mays,Zea,Poaceae
Melaleuca quinquenervia,Melaleuca,Myrtaceae,Spodoptera littoralis,Spodoptera,Noctuidae,CropS,CropG,CropF
Melia azedarach,Melia,Meliaceae,Helicoverpa armigera,Helicoverpa,Noctuidae,CropS,CropG,CropF
Melia azedarach,Melia,Meliaceae,Spodoptera eridania,Spodoptera,Noctuidae,CropS,CropG,CropF
Melia azedarach,Melia,Meliaceae,Spodoptera frugiperda,Spodoptera,Noctuidae,CropS,CropG,CropF
Melia azedarach,Melia,Meliaceae,Spodoptera litura,Spodoptera,Noctuidae,CropS,CropG,CropF
Melia sp.,Melia,Meliaceae,Spodoptera frugiperda,Spodoptera,Noctuidae,CropS,CropG,CropF
Melia sp.,Melia,Meliaceae,Spodoptera frugiperda,Spodoptera,Noctuidae,Zea mays,Zea,Poaceae
Melia volkensii,Melia,Meliaceae,Heliothis virescens,Heliothis,Noctuidae,CropS,CropG,CropF
Melia volkensii,Melia,Meliaceae,Pseudaletia unipuncta,Pseudaletia,Noctuidae,CropPoacS,CropPoacG,Poaceae
Melia volkensii,Melia,Meliaceae,Spodoptera eridania,Spodoptera,Noctuidae,CropS,CropG,CropF
Melia volkensii,Melia,Meliaceae,Spodoptera exigua,Spodoptera,Noctuidae,CropS,CropG,CropF
Melia volkensii,Melia,Meliaceae,Spodoptera frugiperda,Spodoptera,Noctuidae,CropS,CropG,CropF
Melia volkensii,Melia,Meliaceae,Spodoptera littoralis,Spodoptera,Noctuidae,CropS,CropG,CropF
Melia volkensii,Melia,Meliaceae,Trichoplusia ni,Trichoplusia,Noctuidae,CropBrasS,CropBrasG,Brassicaceae
Melilotus albus,Melilotus,Fabaceae,Spodoptera littoralis,Spodoptera,Noctuidae,CropS,CropG,CropF
Melilotus officinalis,Melilotus,Fabaceae,Spodoptera littoralis,Spodoptera,Noctuidae,CropS,CropG,CropF
Mentha × piperita,Mentha,Lamiaceae,Anticarsia gemmatalis,Anticarsia,Noctuidae,CropFabaS,CropFabaG,Fabaceae
Mentha × piperita,Mentha,Lamiaceae,Spodoptera littoralis,Spodoptera,Noctuidae,CropS,CropG,CropF
Mentha × piperita,Mentha,Lamiaceae,Spodoptera litura,Spodoptera,Noctuidae,CropS,CropG,CropF
Mentha aquatica,Mentha,Lamiaceae,Spodoptera littoralis,Spodoptera,Noctuidae,CropS,CropG,CropF
Mentha arvensis,Mentha,Lamiaceae,Spodoptera littoralis,Spodoptera,Noctuidae,CropS,CropG,CropF
Mentha canadensis,Mentha,Lamiaceae,Spodoptera litura,Spodoptera,Noctuidae,CropS,CropG,CropF
Mentha longifolia,Mentha,Lamiaceae,Spodoptera littoralis,Spodoptera,Noctuidae,CropS,CropG,CropF
Mentha pulegium,Mentha,Lamiaceae,Spodoptera littoralis,Spodoptera,Noctuidae,CropS,CropG,CropF
Mentha sp.,Mentha,Lamiaceae,Spodoptera littoralis,Spodoptera,Noctuidae,CropS,CropG,CropF
Mentha spicata,Mentha,Lamiaceae,Spodoptera littoralis,Spodoptera,Noctuidae,CropS,CropG,CropF
Mentha spicata,Mentha,Lamiaceae,Spodoptera litura,Spodoptera,Noctuidae,CropS,CropG,CropF
Mentha suaveolens,Mentha,Lamiaceae,Spodoptera littoralis,Spodoptera,Noctuidae,CropS,CropG,CropF
Mentha virescens,Mentha,Lamiaceae,Spodoptera littoralis,Spodoptera,Noctuidae,CropS,CropG,CropF
Mikania nummularia,Mikania,Asteraceae,Spodoptera frugiperda,Spodoptera,Noctuidae,CropS,CropG,CropF
Millettia ferruginea,Millettia,Fabaceae,Spodoptera frugiperda,Spodoptera,Noctuidae,CropS,CropG,CropF
Millettia ferruginea,Millettia,Fabaceae,Spodoptera frugiperda,Spodoptera,Noctuidae,Zea mays,Zea,Poaceae
Momordica charantia,Momordica,Cucurbitaceae,Spodoptera frugiperda,Spodoptera,Noctuidae,CropS,CropG,CropF
Momordica charantia,Momordica,Cucurbitaceae,Spodoptera litura,Spodoptera,Noctuidae,CropS,CropG,CropF
Morinda citrifolia,Morinda,Rubiaceae,Spodoptera frugiperda,Spodoptera,Noctuidae,CropS,CropG,CropF
Moringa oleifera,Moringa,Moringaceae,Spodoptera frugiperda,Spodoptera,Noctuidae,CropS,CropG,CropF
Murraya koenigii,Murraya,Rutaceae,Spodoptera litura,Spodoptera,Noctuidae,CropS,CropG,CropF
Myrica rubra,Myrica,Myricaceae,Arcte coerula,Arcte,Noctuidae,Boehmeria sp.,Boehmeria,Urticaceae
Myrtillocactus geometrizans,Myrtillocactus,Cactaceae,Spodoptera frugiperda,Spodoptera,Noctuidae,CropS,CropG,CropF
Nepeta cataria,Nepeta,Lamiaceae,Spodoptera littoralis,Spodoptera,Noctuidae,CropS,CropG,CropF
Nepeta nuda,Nepeta,Lamiaceae,Spodoptera littoralis,Spodoptera,Noctuidae,CropS,CropG,CropF
Nerium oleander,Nerium,Apocynaceae,Spodoptera littoralis,Spodoptera,Noctuidae,CropS,CropG,CropF
Nicotiana rustica,Nicotiana,Solanaceae,Arcte coerula,Arcte,Noctuidae,Boehmeria sp.,Boehmeria,Urticaceae
Nicotiana tabacum,Nicotiana,Solanaceae,Arcte coerula,Arcte,Noctuidae,Boehmeria sp.,Boehmeria,Urticaceae
Nicotiana tabacum,Nicotiana,Solanaceae,Spodoptera frugiperda,Spodoptera,Noctuidae,CropS,CropG,CropF
Nicotiana tabacum,Nicotiana,Solanaceae,Spodoptera frugiperda,Spodoptera,Noctuidae,Zea mays,Zea,Poaceae
Ochroma pyramidale,Ochroma,Malvaceae,Spodoptera frugiperda,Spodoptera,Noctuidae,CropS,CropG,CropF
Ocimum basilicum,Ocimum,Lamiaceae,Chrysodeixis chalcites,Chrysodeixis,Noctuidae,CropS,CropG,CropF
Ocimum basilicum,Ocimum,Lamiaceae,Spodoptera frugiperda,Spodoptera,Noctuidae,CropS,CropG,CropF
Ocimum basilicum,Ocimum,Lamiaceae,Spodoptera littoralis,Spodoptera,Noctuidae,CropS,CropG,CropF
Ocimum basilicum,Ocimum,Lamiaceae,Spodoptera litura,Spodoptera,Noctuidae,CropS,CropG,CropF
Ocimum gratissimum,Ocimum,Lamiaceae,Spodoptera frugiperda,Spodoptera,Noctuidae,CropS,CropG,CropF
Ocimum gratissimum,Ocimum,Lamiaceae,Spodoptera littoralis,Spodoptera,Noctuidae,CropS,CropG,CropF
Olea europaea,Olea,Oleaceae,Spodoptera littoralis,Spodoptera,Noctuidae,CropS,CropG,CropF
Onobrychis arenaria,Onobrychis,Fabaceae,Spodoptera littoralis,Spodoptera,Noctuidae,CropS,CropG,CropF
Onoclea sensibilis,Onoclea,Onocleaceae,Spodoptera frugiperda,Spodoptera,Noctuidae,CropS,CropG,CropF
Ononis natrix,Ononis,Fabaceae,Spodoptera littoralis,Spodoptera,Noctuidae,CropS,CropG,CropF
Ononis spinosa,Ononis,Fabaceae,Spodoptera littoralis,Spodoptera,Noctuidae,CropS,CropG,CropF
Onopordum acanthium,Onopordum,Asteraceae,Spodoptera littoralis,Spodoptera,Noctuidae,CropS,CropG,CropF
Onosma visianii,Onosma,Boraginaceae,Spodoptera littoralis,Spodoptera,Noctuidae,CropS,CropG,CropF
Origanum compactum,Origanum,Lamiaceae,Spodoptera littoralis,Spodoptera,Noctuidae,CropS,CropG,CropF
Origanum dictamnus,Origanum,Lamiaceae,Spodoptera littoralis,Spodoptera,Noctuidae,CropS,CropG,CropF
Origanum majorana,Origanum,Lamiaceae,Spodoptera littoralis,Spodoptera,Noctuidae,CropS,CropG,CropF
Origanum syriacum,Origanum,Lamiaceae,Spodoptera littoralis,Spodoptera,Noctuidae,CropS,CropG,CropF
Origanum vulgare,Origanum,Lamiaceae,Spodoptera littoralis,Spodoptera,Noctuidae,CropS,CropG,CropF
Origanum vulgare,Origanum,Lamiaceae,Spodoptera litura,Spodoptera,Noctuidae,CropS,CropG,CropF
Orlaya grandiflora,Orlaya,Apiaceae,Spodoptera littoralis,Spodoptera,Noctuidae,CropS,CropG,CropF
Otholobium glandulosum,Otholobium,Fabaceae,Spodoptera littoralis,Spodoptera,Noctuidae,CropS,CropG,CropF
Oxandra xylopioides,Oxandra,Annonaceae,Spodoptera frugiperda,Spodoptera,Noctuidae,CropS,CropG,CropF
Pachyrhizus erosus,Pachyrhizus,Fabaceae,Helicoverpa assulta,Helicoverpa,Noctuidae,CropS,CropG,CropF
Palicourea goyazensis,Palicourea,Rubiaceae,Spodoptera frugiperda,Spodoptera,Noctuidae,CropS,CropG,CropF
Panax ginseng,Panax,Araliaceae,Spodoptera littoralis,Spodoptera,Noctuidae,CropS,CropG,CropF
Parthenium argentatum,Parthenium,Asteraceae,Spodoptera frugiperda,Spodoptera,Noctuidae,CropS,CropG,CropF
Parthenium hysterophorus,Parthenium,Asteraceae,Helicoverpa armigera,Helicoverpa,Noctuidae,CropS,CropG,CropF
Parthenium hysterophorus,Parthenium,Asteraceae,Spodoptera litura,Spodoptera,Noctuidae,CropS,CropG,CropF
Peganum harmala,Peganum,Nitrariaceae,Spodoptera littoralis,Spodoptera,Noctuidae,CropS,CropG,CropF
Pelargonium graveolens,Pelargonium,Geraniaceae,Spodoptera littoralis,Spodoptera,Noctuidae,CropS,CropG,CropF
Pelargonium radens,Pelargonium,Geraniaceae,Spodoptera littoralis,Spodoptera,Noctuidae,CropS,CropG,CropF
Peltophorum dubium,Peltophorum,Fabaceae,Spodoptera frugiperda,Spodoptera,Noctuidae,CropS,CropG,CropF
Petasites hybridus,Petasites,Asteraceae,Spodoptera littoralis,Spodoptera,Noctuidae,CropS,CropG,CropF
Petiveria alliacea,Petiveria,Phytolaccaceae,Spodoptera frugiperda,Spodoptera,Noctuidae,CropS,CropG,CropF
Petroselinum crispum,Petroselinum,Apiaceae,Spodoptera littoralis,Spodoptera,Noctuidae,CropS,CropG,CropF
Peucedanum ostruthium,Peucedanum,Apiaceae,Spodoptera littoralis,Spodoptera,Noctuidae,CropS,CropG,CropF
Peumus boldus,Peumus,Monimiaceae,Helicoverpa zea,Helicoverpa,Noctuidae,CropS,CropG,CropF
Peumus boldus,Peumus,Monimiaceae,Spodoptera frugiperda,Spodoptera,Noctuidae,CropS,CropG,CropF
Phacelia tanacetifolia,Phacelia,Boraginaceae,Spodoptera littoralis,Spodoptera,Noctuidae,CropS,CropG,CropF
Phyllanthus reticulatus,Phyllanthus,Phyllanthaceae,Spodoptera frugiperda,Spodoptera,Noctuidae,CropS,CropG,CropF
Physalis alkekengi,Physalis,Solanaceae,Spodoptera littoralis,Spodoptera,Noctuidae,CropS,CropG,CropF
Phytolacca dodecandra,Phytolacca,Phytolaccaceae,Spodoptera frugiperda,Spodoptera,Noctuidae,CropS,CropG,CropF
Phytolacca dodecandra,Phytolacca,Phytolaccaceae,Spodoptera frugiperda,Spodoptera,Noctuidae,Zea mays,Zea,Poaceae
Picea abies,Picea,Pinaceae,Spodoptera littoralis,Spodoptera,Noctuidae,CropS,CropG,CropF
Picramnia sellowii,Picramnia,Picramniaceae,Spodoptera frugiperda,Spodoptera,Noctuidae,CropS,CropG,CropF
Picrasma crenata,Picrasma,Simaroubaceae,Spodoptera frugiperda,Spodoptera,Noctuidae,CropS,CropG,CropF
Picrasma quassioides,Picrasma,Simaroubaceae,Agrotis spp.,Agrotis,Noctuidae,CropS,CropG,CropF
Pilocarpus goudotianus,Pilocarpus,Rutaceae,Spodoptera littoralis,Spodoptera,Noctuidae,CropS,CropG,CropF
Pimpinella anisum,Pimpinella,Apiaceae,Spodoptera littoralis,Spodoptera,Noctuidae,CropS,CropG,CropF
Pinellia ternata,Pinellia,Araceae,Spodoptera exigua,Spodoptera,Noctuidae,CropS,CropG,CropF
Pinus mugo,Pinus,Pinaceae,Spodoptera litura,Spodoptera,Noctuidae,CropS,CropG,CropF
Pinus sylvestris,Pinus,Pinaceae,Spodoptera littoralis,Spodoptera,Noctuidae,CropS,CropG,CropF
Piper betle,Piper,Piperaceae,Spodoptera litura,Spodoptera,Noctuidae,CropS,CropG,CropF
Piper cenocladum,Piper,Piperaceae,Spodoptera frugiperda,Spodoptera,Noctuidae,CropS,CropG,CropF
Piper hispidum,Piper,Piperaceae,Spodoptera frugiperda,Spodoptera,Noctuidae,CropS,CropG,CropF
Piper nigrum,Piper,Piperaceae,Spodoptera litura,Spodoptera,Noctuidae,CropS,CropG,CropF
Piper tuberculatum,Piper,Piperaceae,Spodoptera frugiperda,Spodoptera,Noctuidae,CropS,CropG,CropF
Plantago lanceolata,Plantago,Plantaginaceae,Spodoptera littoralis,Spodoptera,Noctuidae,CropS,CropG,CropF
Platycarya strobilacea,Platycarya,Juglandaceae,Agrotis spp.,Agrotis,Noctuidae,CropS,CropG,CropF
Plinia cauliflora,Plinia,Myrtaceae,Spodoptera frugiperda,Spodoptera,Noctuidae,CropS,CropG,CropF
Pluchea sagittalis,Pluchea,Asteraceae,Spodoptera frugiperda,Spodoptera,Noctuidae,CropS,CropG,CropF
Pogostemon cablin,Pogostemon,Lamiaceae,Spodoptera littoralis,Spodoptera,Noctuidae,CropS,CropG,CropF
Polygala comosa,Polygala,Polygalaceae,Spodoptera littoralis,Spodoptera,Noctuidae,CropS,CropG,CropF
Polygonum aviculare,Polygonum,Polygonaceae,Spodoptera littoralis,Spodoptera,Noctuidae,CropS,CropG,CropF
Polygonum aviculare,Polygonum,Polygonaceae,Spodoptera ornithogalli,Spodoptera,Noctuidae,CropS,CropG,CropF
Polygonum pubescens,Polygonum,Polygonaceae,Agrotis spp.,Agrotis,Noctuidae,CropS,CropG,CropF
Pongamia pinnata,Pongamia,Fabaceae,Helicoverpa armigera,Helicoverpa,Noctuidae,CropS,CropG,CropF
Pongamia pinnata,Pongamia,Fabaceae,Spodoptera litura,Spodoptera,Noctuidae,CropS,CropG,CropF
Pontederia crassipes,Pontederia,Pontederiaceae,Spodoptera litura,Spodoptera,Noctuidae,CropS,CropG,CropF
Populus nigra,Populus,Salicaceae,Spodoptera littoralis,Spodoptera,Noctuidae,CropS,CropG,CropF
Potamogeton nodosus,Potamogeton,Potamogetonaceae,Spodoptera frugiperda,Spodoptera,Noctuidae,CropS,CropG,CropF
Potentilla anserina,Potentilla,Rosaceae,Spodoptera littoralis,Spodoptera,Noctuidae,CropS,CropG,CropF
Potentilla argentea,Potentilla,Rosaceae,Spodoptera littoralis,Spodoptera,Noctuidae,CropS,CropG,CropF
Potentilla erecta,Potentilla,Rosaceae,Spodoptera littoralis,Spodoptera,Noctuidae,CropS,CropG,CropF
Potentilla hirta,Potentilla,Rosaceae,Spodoptera littoralis,Spodoptera,Noctuidae,CropS,CropG,CropF
Potentilla reptans,Potentilla,Rosaceae,Spodoptera littoralis,Spodoptera,Noctuidae,CropS,CropG,CropF
Prangos trifida,Prangos,Apiaceae,Spodoptera littoralis,Spodoptera,Noctuidae,CropS,CropG,CropF
Prosopis juliflora,Prosopis,Fabaceae,Helicoverpa armigera,Helicoverpa,Noctuidae,CropS,CropG,CropF
Prosopis juliflora,Prosopis,Fabaceae,Spodoptera litura,Spodoptera,Noctuidae,CropS,CropG,CropF
Pseudocedrela kotschyi,Pseudocedrela,Meliaceae,Helicoverpa zea,Helicoverpa,Noctuidae,CropS,CropG,CropF
Pseudocedrela kotschyi,Pseudocedrela,Meliaceae,Heliothis virescens,Heliothis,Noctuidae,CropS,CropG,CropF
Psidium guajava,Psidium,Myrtaceae,Spodoptera frugiperda,Spodoptera,Noctuidae,CropS,CropG,CropF
Psychotria capitata,Psychotria,Rubiaceae,Spodoptera frugiperda,Spodoptera,Noctuidae,CropS,CropG,CropF
Psychotria hoffmannseggiana,Psychotria,Rubiaceae,Spodoptera frugiperda,Spodoptera,Noctuidae,CropS,CropG,CropF
Pterocarya stenoptera,Pterocarya,Juglandaceae,Agrotis spp.,Agrotis,Noctuidae,CropS,CropG,CropF
Pterocaulon polystachyum,Pterocaulon,Asteraceae,Spodoptera frugiperda,Spodoptera,Noctuidae,CropS,CropG,CropF
Pueraria montana,Pueraria,Fabaceae,Agrotis spp.,Agrotis,Noctuidae,CropS,CropG,CropF
Pulsatilla chinensis,Pulsatilla,Ranunculaceae,Agrotis spp.,Agrotis,Noctuidae,CropS,CropG,CropF
Pyrethrum corymbosum,Pyrethrum,Asteraceae,Spodoptera littoralis,Spodoptera,Noctuidae,CropS,CropG,CropF
Quassia amara,Quassia,Simaroubaceae,Spodoptera frugiperda,Spodoptera,Noctuidae,CropS,CropG,CropF
Reseda odorata,Reseda,Resedaceae,Spodoptera littoralis,Spodoptera,Noctuidae,CropS,CropG,CropF
Reynoutria × bohemica,Reynoutria,Polygonaceae,Spodoptera littoralis,Spodoptera,Noctuidae,CropS,CropG,CropF
Rhazya stricta,Rhazya,Apocynaceae,Spodoptera littoralis,Spodoptera,Noctuidae,CropS,CropG,CropF
Ricinus communis,Ricinus,Euphorbiaceae,Spodoptera frugiperda,Spodoptera,Noctuidae,CropS,CropG,CropF
Ricinus communis,Ricinus,Euphorbiaceae,Spodoptera littoralis,Spodoptera,Noctuidae,CropS,CropG,CropF
Ricinus communis,Ricinus,Euphorbiaceae,Spodoptera litura,Spodoptera,Noctuidae,CropS,CropG,CropF
Roldana barba-johannis,Roldana,Asteraceae,Spodoptera frugiperda,Spodoptera,Noctuidae,CropS,CropG,CropF
Rollinia emarginata,Rollinia,Annonaceae,Spodoptera frugiperda,Spodoptera,Noctuidae,CropS,CropG,CropF
Rollinia mucosa,Rollinia,Annonaceae,Spodoptera frugiperda,Spodoptera,Noctuidae,CropS,CropG,CropF
Rollinia sylvatica,Rollinia,Annonaceae,Spodoptera frugiperda,Spodoptera,Noctuidae,CropS,CropG,CropF
Rosmarinus officinalis,Rosmarinus,Lamiaceae,Pseudaletia unipuncta,Pseudaletia,Noctuidae,CropPoacS,CropPoacG,Poaceae
Rosmarinus officinalis,Rosmarinus,Lamiaceae,Spodoptera littoralis,Spodoptera,Noctuidae,CropS,CropG,CropF
Rosmarinus officinalis,Rosmarinus,Lamiaceae,Trichoplusia ni,Trichoplusia,Noctuidae,CropBrasS,CropBrasG,Brassicaceae
Rubia tinctorum,Rubia,Rubiaceae,Spodoptera littoralis,Spodoptera,Noctuidae,CropS,CropG,CropF
Rumex acetosella,Rumex,Polygonaceae,Spodoptera littoralis,Spodoptera,Noctuidae,CropS,CropG,CropF
Ruprechtia apetala,Ruprechtia,Polygonaceae,Spodoptera frugiperda,Spodoptera,Noctuidae,CropS,CropG,CropF
Ruta graveolens,Ruta,Rutaceae,Spodoptera frugiperda,Spodoptera,Noctuidae,CropS,CropG,CropF
Ruta sp.,Ruta,Rutaceae,Spodoptera frugiperda,Spodoptera,Noctuidae,CropS,CropG,CropF
Salvia aegyptiaca,Salvia,Lamiaceae,Spodoptera littoralis,Spodoptera,Noctuidae,CropS,CropG,CropF
Salvia aethiopis,Salvia,Lamiaceae,Spodoptera littoralis,Spodoptera,Noctuidae,CropS,CropG,CropF
Salvia ballotiflora,Salvia,Lamiaceae,Spodoptera frugiperda,Spodoptera,Noctuidae,CropS,CropG,CropF
Salvia candelabrum,Salvia,Lamiaceae,Spodoptera littoralis,Spodoptera,Noctuidae,CropS,CropG,CropF
Salvia coccinea,Salvia,Lamiaceae,Spodoptera littoralis,Spodoptera,Noctuidae,CropS,CropG,CropF
Salvia connivens,Salvia,Lamiaceae,Spodoptera frugiperda,Spodoptera,Noctuidae,CropS,CropG,CropF
Salvia farinacea,Salvia,Lamiaceae,Spodoptera littoralis,Spodoptera,Noctuidae,CropS,CropG,CropF
Salvia glutinosa,Salvia,Lamiaceae,Spodoptera littoralis,Spodoptera,Noctuidae,CropS,CropG,CropF
Salvia keerlii,Salvia,Lamiaceae,Spodoptera frugiperda,Spodoptera,Noctuidae,CropS,CropG,CropF
Salvia microphylla,Salvia,Lamiaceae,Spodoptera frugiperda,Spodoptera,Noctuidae,CropS,CropG,CropF
Salvia officinalis,Salvia,Lamiaceae,Spodoptera littoralis,Spodoptera,Noctuidae,CropS,CropG,CropF
Salvia officinalis,Salvia,Lamiaceae,Spodoptera litura,Spodoptera,Noctuidae,CropS,CropG,CropF
Salvia palaestina,Salvia,Lamiaceae,Spodoptera littoralis,Spodoptera,Noctuidae,CropS,CropG,CropF
Salvia phlomoides,Salvia,Lamiaceae,Spodoptera littoralis,Spodoptera,Noctuidae,CropS,CropG,CropF
Salvia pratensis,Salvia,Lamiaceae,Spodoptera littoralis,Spodoptera,Noctuidae,CropS,CropG,CropF
Salvia sclarea,Salvia,Lamiaceae,Spodoptera littoralis,Spodoptera,Noctuidae,CropS,CropG,CropF
Salvia splendens,Salvia,Lamiaceae,Spodoptera littoralis,Spodoptera,Noctuidae,CropS,CropG,CropF
Salvia veneris,Salvia,Lamiaceae,Spodoptera exigua,Spodoptera,Noctuidae,CropS,CropG,CropF
Salvia verbenaca,Salvia,Lamiaceae,Spodoptera littoralis,Spodoptera,Noctuidae,CropS,CropG,CropF
Sambucus ebulus,Sambucus,Adoxaceae,Spodoptera littoralis,Spodoptera,Noctuidae,CropS,CropG,CropF
Sandoricum koetjape,Sandoricum,Meliaceae,Spodoptera frugiperda,Spodoptera,Noctuidae,CropS,CropG,CropF
Sanguisorba officinalis,Sanguisorba,Rosaceae,Spodoptera littoralis,Spodoptera,Noctuidae,CropS,CropG,CropF
Sapindus saponaria,Sapindus,Sapindaceae,Spodoptera frugiperda,Spodoptera,Noctuidae,CropS,CropG,CropF
Saponaria officinalis,Saponaria,Caryophyllaceae,Spodoptera littoralis,Spodoptera,Noctuidae,CropS,CropG,CropF
Sarcomphalus joazeiro,Sarcomphalus,Rhamnaceae,Spodoptera frugiperda,Spodoptera,Noctuidae,CropS,CropG,CropF
Satureja hortensis,Satureja,Lamiaceae,Spodoptera littoralis,Spodoptera,Noctuidae,CropS,CropG,CropF
Satureja hortensis,Satureja,Lamiaceae,Spodoptera litura,Spodoptera,Noctuidae,CropS,CropG,CropF
Sauromatum giganteum,Sauromatum,Araceae,Anomis flava,Anomis,Noctuidae,CropMalvS,CropMalvG,Malvaceae
Schinus molle,Schinus,Anacardiaceae,Spodoptera frugiperda,Spodoptera,Noctuidae,CropS,CropG,CropF
Schinus molle,Schinus,Anacardiaceae,Spodoptera frugiperda,Spodoptera,Noctuidae,Zea mays,Zea,Poaceae
Schinus terebinthifolia,Schinus,Anacardiaceae,Spodoptera frugiperda,Spodoptera,Noctuidae,CropS,CropG,CropF
Schisandra chinensis,Schisandra,Schisandraceae,Spodoptera littoralis,Spodoptera,Noctuidae,CropS,CropG,CropF
Scrophularia nodosa,Scrophularia,Scrophulariaceae,Spodoptera littoralis,Spodoptera,Noctuidae,CropS,CropG,CropF
Securidaca longipedunculata,Securidaca,Polygalaceae,Helicoverpa zea,Helicoverpa,Noctuidae,CropS,CropG,CropF
Securidaca longipedunculata,Securidaca,Polygalaceae,Heliothis virescens,Heliothis,Noctuidae,CropS,CropG,CropF
Securigera varia,Securigera,Fabaceae,Spodoptera littoralis,Spodoptera,Noctuidae,CropS,CropG,CropF
Sedum roseum,Sedum,Crassulaceae,Spodoptera littoralis,Spodoptera,Noctuidae,CropS,CropG,CropF
Senecio salignus,Senecio,Asteraceae,Spodoptera frugiperda,Spodoptera,Noctuidae,CropS,CropG,CropF
Senecio sudeticus,Senecio,Asteraceae,Spodoptera littoralis,Spodoptera,Noctuidae,CropS,CropG,CropF
Senecio umbrosus,Senecio,Asteraceae,Spodoptera littoralis,Spodoptera,Noctuidae,CropS,CropG,CropF
Senna crotalarioides,Senna,Fabaceae,Spodoptera frugiperda,Spodoptera,Noctuidae,CropS,CropG,CropF
Senna obtusifolia,Senna,Fabaceae,Spodoptera frugiperda,Spodoptera,Noctuidae,CropS,CropG,CropF
Senna tora,Senna,Fabaceae,Spodoptera litura,Spodoptera,Noctuidae,CropS,CropG,CropF
Seseli pallasii,Seseli,Apiaceae,Spodoptera littoralis,Spodoptera,Noctuidae,CropS,CropG,CropF
Sideritis × angustifolia,Sideritis,Lamiaceae,Spodoptera littoralis,Spodoptera,Noctuidae,CropS,CropG,CropF
Sideritis serrata,Sideritis,Lamiaceae,Spodoptera littoralis,Spodoptera,Noctuidae,CropS,CropG,CropF
Sideritis tragoriganum,Sideritis,Lamiaceae,Spodoptera littoralis,Spodoptera,Noctuidae,CropS,CropG,CropF
Silene vulgaris,Silene,Caryophyllaceae,Spodoptera littoralis,Spodoptera,Noctuidae,CropS,CropG,CropF
Silphium perfoliatum,Silphium,Asteraceae,Spodoptera littoralis,Spodoptera,Noctuidae,CropS,CropG,CropF
Siparuna guianensis,Siparuna,Siparunaceae,Anticarsia gemmatalis,Anticarsia,Noctuidae,CropFabaS,CropFabaG,Fabaceae
Siparuna guianensis,Siparuna,Siparunaceae,Spodoptera frugiperda,Spodoptera,Noctuidae,CropS,CropG,CropF
Siphoneugena densiflora,Siphoneugena,Myrtaceae,Spodoptera frugiperda,Spodoptera,Noctuidae,CropS,CropG,CropF
Solanum lycopersicum,Solanum,Solanaceae,Spodoptera frugiperda,Spodoptera,Noctuidae,CropS,CropG,CropF
Solanum lycopersicum,Solanum,Solanaceae,Spodoptera litura,Spodoptera,Noctuidae,CropS,CropG,CropF
Solanum melongena,Solanum,Solanaceae,Spodoptera litura,Spodoptera,Noctuidae,CropS,CropG,CropF
Solanum pseudocapsicum,Solanum,Solanaceae,Spodoptera litura,Spodoptera,Noctuidae,CropS,CropG,CropF
Solenostemma argel,Solenostemma,Apocynaceae,Spodoptera littoralis,Spodoptera,Noctuidae,CropS,CropG,CropF
Stachys byzantina,Stachys,Lamiaceae,Spodoptera littoralis,Spodoptera,Noctuidae,CropS,CropG,CropF
Stachys palustris,Stachys,Lamiaceae,Spodoptera littoralis,Spodoptera,Noctuidae,CropS,CropG,CropF
Stachys recta,Stachys,Lamiaceae,Spodoptera littoralis,Spodoptera,Noctuidae,CropS,CropG,CropF
Stachys sylvatica,Stachys,Lamiaceae,Spodoptera littoralis,Spodoptera,Noctuidae,CropS,CropG,CropF
Strophanthus hispidus,Strophanthus,Apocynaceae,Helicoverpa zea,Helicoverpa,Noctuidae,CropS,CropG,CropF
Strophanthus hispidus,Strophanthus,Apocynaceae,Heliothis virescens,Heliothis,Noctuidae,CropS,CropG,CropF
Swietenia macrophylla,Swietenia,Meliaceae,Spodoptera frugiperda,Spodoptera,Noctuidae,CropS,CropG,CropF
Swietenia mahagoni,Swietenia,Meliaceae,Spodoptera frugiperda,Spodoptera,Noctuidae,CropS,CropG,CropF
Swietenia mahagoni,Swietenia,Meliaceae,Spodoptera litura,Spodoptera,Noctuidae,CropS,CropG,CropF
Symphytum officinale,Symphytum,Boraginaceae,Spodoptera littoralis,Spodoptera,Noctuidae,CropS,CropG,CropF
Synedrella nodiflora,Synedrella,Asteraceae,Spodoptera litura,Spodoptera,Noctuidae,CropS,CropG,CropF
Syzygium aromaticum,Syzygium,Myrtaceae,Anticarsia gemmatalis,Anticarsia,Noctuidae,CropFabaS,CropFabaG,Fabaceae
Syzygium aromaticum,Syzygium,Myrtaceae,Spodoptera frugiperda,Spodoptera,Noctuidae,CropS,CropG,CropF
Syzygium aromaticum,Syzygium,Myrtaceae,Spodoptera frugiperda,Spodoptera,Noctuidae,Zea mays,Zea,Poaceae
Syzygium aromaticum,Syzygium,Myrtaceae,Spodoptera littoralis,Spodoptera,Noctuidae,CropS,CropG,CropF
Syzygium aromaticum,Syzygium,Myrtaceae,Spodoptera litura,Spodoptera,Noctuidae,CropS,CropG,CropF
Syzygium aromaticum,Syzygium,Myrtaceae,Trichoplusia ni,Trichoplusia,Noctuidae,CropBrasS,CropBrasG,Brassicaceae
Syzygium cumini,Syzygium,Myrtaceae,Spodoptera litura,Spodoptera,Noctuidae,CropS,CropG,CropF
Syzygium zeylanicum,Syzygium,Myrtaceae,Spodoptera litura,Spodoptera,Noctuidae,CropS,CropG,CropF
Tagetes erecta,Tagetes,Asteraceae,Helicoverpa armigera,Helicoverpa,Noctuidae,CropS,CropG,CropF
Tagetes erecta,Tagetes,Asteraceae,Spodoptera frugiperda,Spodoptera,Noctuidae,CropS,CropG,CropF
Tagetes erecta,Tagetes,Asteraceae,Spodoptera littoralis,Spodoptera,Noctuidae,CropS,CropG,CropF
Tagetes erecta,Tagetes,Asteraceae,Spodoptera litura,Spodoptera,Noctuidae,CropS,CropG,CropF
Tagetes minuta,Tagetes,Asteraceae,Spodoptera littoralis,Spodoptera,Noctuidae,CropS,CropG,CropF
Talisia esculenta,Talisia,Sapindaceae,Spodoptera frugiperda,Spodoptera,Noctuidae,CropS,CropG,CropF
Tamarindus indica,Tamarindus,Fabaceae,Spodoptera litura,Spodoptera,Noctuidae,CropS,CropG,CropF
Tanacetum balsamita,Tanacetum,Asteraceae,Spodoptera littoralis,Spodoptera,Noctuidae,CropS,CropG,CropF
Tanacetum parthenium,Tanacetum,Asteraceae,Spodoptera littoralis,Spodoptera,Noctuidae,CropS,CropG,CropF
Taraxacum officinale,Taraxacum,Asteraceae,Spodoptera littoralis,Spodoptera,Noctuidae,CropS,CropG,CropF
Tectona grandis,Tectona,Lamiaceae,Spodoptera litura,Spodoptera,Noctuidae,CropS,CropG,CropF
Tephrosia vogelii,Tephrosia,Fabaceae,Spodoptera frugiperda,Spodoptera,Noctuidae,CropS,CropG,CropF
Terminalia catappa,Terminalia,Combretaceae,Spodoptera litura,Spodoptera,Noctuidae,CropS,CropG,CropF
Teucrium botrys,Teucrium,Lamiaceae,Spodoptera littoralis,Spodoptera,Noctuidae,CropS,CropG,CropF
Teucrium capitatum,Teucrium,Lamiaceae,Spodoptera littoralis,Spodoptera,Noctuidae,CropS,CropG,CropF
Teucrium chamaedrys,Teucrium,Lamiaceae,Spodoptera littoralis,Spodoptera,Noctuidae,CropS,CropG,CropF
Teucrium eriocephalum,Teucrium,Lamiaceae,Spodoptera littoralis,Spodoptera,Noctuidae,CropS,CropG,CropF
Teucrium hircanicum,Teucrium,Lamiaceae,Spodoptera littoralis,Spodoptera,Noctuidae,CropS,CropG,CropF
Teucrium lanigerum,Teucrium,Lamiaceae,Spodoptera littoralis,Spodoptera,Noctuidae,CropS,CropG,CropF
Teucrium polium,Teucrium,Lamiaceae,Spodoptera littoralis,Spodoptera,Noctuidae,CropS,CropG,CropF
Teucrium pseudochamaepitys,Teucrium,Lamiaceae,Spodoptera littoralis,Spodoptera,Noctuidae,CropS,CropG,CropF
Thapsia garganica,Thapsia,Apiaceae,Spodoptera littoralis,Spodoptera,Noctuidae,CropS,CropG,CropF
Thuja occidentalis,Thuja,Cupressaceae,Spodoptera littoralis,Spodoptera,Noctuidae,CropS,CropG,CropF
Thymelaea hirsuta,Thymelaea,Thymelaeaceae,Spodoptera littoralis,Spodoptera,Noctuidae,CropS,CropG,CropF
Thymus × citriodorus,Thymus,Lamiaceae,Spodoptera littoralis,Spodoptera,Noctuidae,CropS,CropG,CropF
Thymus alpestris,Thymus,Lamiaceae,Spodoptera littoralis,Spodoptera,Noctuidae,CropS,CropG,CropF
Thymus mastichina,Thymus,Lamiaceae,Spodoptera littoralis,Spodoptera,Noctuidae,CropS,CropG,CropF
Thymus mongolicus,Thymus,Lamiaceae,Spodoptera littoralis,Spodoptera,Noctuidae,CropS,CropG,CropF
Thymus mongolicus,Thymus,Lamiaceae,Spodoptera litura,Spodoptera,Noctuidae,CropS,CropG,CropF
Thymus saturejoides,Thymus,Lamiaceae,Spodoptera littoralis,Spodoptera,Noctuidae,CropS,CropG,CropF
Thymus serpyllum,Thymus,Lamiaceae,Spodoptera litura,Spodoptera,Noctuidae,CropS,CropG,CropF
Thymus vulgaris,Thymus,Lamiaceae,Anticarsia gemmatalis,Anticarsia,Noctuidae,CropFabaS,CropFabaG,Fabaceae
Thymus vulgaris,Thymus,Lamiaceae,Spodoptera littoralis,Spodoptera,Noctuidae,CropS,CropG,CropF
Toona ciliata,Toona,Meliaceae,Spodoptera frugiperda,Spodoptera,Noctuidae,CropS,CropG,CropF
Toona sinensis,Toona,Meliaceae,Spodoptera frugiperda,Spodoptera,Noctuidae,CropS,CropG,CropF
Toxicopueraria yunnanensis,Toxicopueraria,Fabaceae,Agrotis spp.,Agrotis,Noctuidae,CropS,CropG,CropF
Trichilia americana,Trichilia,Meliaceae,Spodoptera litura,Spodoptera,Noctuidae,CropS,CropG,CropF
Trichilia casaretti,Trichilia,Meliaceae,Spodoptera frugiperda,Spodoptera,Noctuidae,CropS,CropG,CropF
Trichilia casaretti,Trichilia,Meliaceae,Spodoptera frugiperda,Spodoptera,Noctuidae,Zea mays,Zea,Poaceae
Trichilia catigua,Trichilia,Meliaceae,Spodoptera frugiperda,Spodoptera,Noctuidae,CropS,CropG,CropF
Trichilia catigua,Trichilia,Meliaceae,Spodoptera frugiperda,Spodoptera,Noctuidae,Zea mays,Zea,Poaceae
Trichilia claussenii,Trichilia,Meliaceae,Spodoptera frugiperda,Spodoptera,Noctuidae,CropS,CropG,CropF
Trichilia claussenii,Trichilia,Meliaceae,Spodoptera frugiperda,Spodoptera,Noctuidae,Zea mays,Zea,Poaceae
Trichilia elegans,Trichilia,Meliaceae,Spodoptera frugiperda,Spodoptera,Noctuidae,CropS,CropG,CropF
Trichilia elegans,Trichilia,Meliaceae,Spodoptera frugiperda,Spodoptera,Noctuidae,Zea mays,Zea,Poaceae
Trichilia emetica,Trichilia,Meliaceae,Spodoptera frugiperda,Spodoptera,Noctuidae,CropS,CropG,CropF
Trichilia pallens,Trichilia,Meliaceae,Spodoptera frugiperda,Spodoptera,Noctuidae,CropS,CropG,CropF
Trichilia pallens,Trichilia,Meliaceae,Spodoptera frugiperda,Spodoptera,Noctuidae,Zea mays,Zea,Poaceae
Trichilia pallida,Trichilia,Meliaceae,Spodoptera frugiperda,Spodoptera,Noctuidae,CropS,CropG,CropF
Trichilia pallida,Trichilia,Meliaceae,Spodoptera frugiperda,Spodoptera,Noctuidae,Zea mays,Zea,Poaceae
Trichilia prieuriana,Trichilia,Meliaceae,Spodoptera frugiperda,Spodoptera,Noctuidae,CropS,CropG,CropF
Trichilia sp.,Trichilia,Meliaceae,Spodoptera frugiperda,Spodoptera,Noctuidae,CropS,CropG,CropF
Trichogonia villosa,Trichogonia,Asteraceae,Spodoptera frugiperda,Spodoptera,Noctuidae,CropS,CropG,CropF
Tridax procumbens,Tridax,Asteraceae,Helicoverpa armigera,Helicoverpa,Noctuidae,CropS,CropG,CropF
Tridax procumbens,Tridax,Asteraceae,Spodoptera litura,Spodoptera,Noctuidae,CropS,CropG,CropF
Trifolium arvense,Trifolium,Fabaceae,Spodoptera littoralis,Spodoptera,Noctuidae,CropS,CropG,CropF
Trigonella foenum-graecum,Trigonella,Fabaceae,Spodoptera littoralis,Spodoptera,Noctuidae,CropS,CropG,CropF
Trixis glutinosa,Trixis,Asteraceae,Spodoptera frugiperda,Spodoptera,Noctuidae,CropS,CropG,CropF
Tropaeolum majus,Tropaeolum,Tropaeolaceae,Spodoptera littoralis,Spodoptera,Noctuidae,CropS,CropG,CropF
Tsuga canadensis,Tsuga,Pinaceae,Spodoptera littoralis,Spodoptera,Noctuidae,CropS,CropG,CropF
Valeriana officinalis,Valeriana,Caprifoliaceae,Spodoptera littoralis,Spodoptera,Noctuidae,CropS,CropG,CropF
Verbena hirta,Verbena,Verbenaceae,Spodoptera littoralis,Spodoptera,Noctuidae,CropS,CropG,CropF
Verbena officinalis,Verbena,Verbenaceae,Spodoptera littoralis,Spodoptera,Noctuidae,CropS,CropG,CropF
Vernonanthura nudiflora,Vernonanthura,Asteraceae,Spodoptera frugiperda,Spodoptera,Noctuidae,CropS,CropG,CropF
Vernonia amygdalina,Vernonia,Asteraceae,Spodoptera frugiperda,Spodoptera,Noctuidae,CropS,CropG,CropF
Veronica officinalis,Veronica,Plantaginaceae,Spodoptera littoralis,Spodoptera,Noctuidae,CropS,CropG,CropF
Vincetoxicum canescens,Vincetoxicum,Apocynaceae,Spodoptera littoralis,Spodoptera,Noctuidae,Solanum lycopersicum,Solanum,Solanaceae
Vincetoxicum fuscatum,Vincetoxicum,Apocynaceae,Spodoptera littoralis,Spodoptera,Noctuidae,Solanum lycopersicum,Solanum,Solanaceae
Vincetoxicum hirundinaria,Vincetoxicum,Apocynaceae,Spodoptera littoralis,Spodoptera,Noctuidae,CropS,CropG,CropF
Vincetoxicum parviflorum,Vincetoxicum,Apocynaceae,Spodoptera littoralis,Spodoptera,Noctuidae,Solanum lycopersicum,Solanum,Solanaceae
Vincetoxicum scandens,Vincetoxicum,Apocynaceae,Spodoptera littoralis,Spodoptera,Noctuidae,CropS,CropG,CropF
Vitex hemsleyi,Vitex,Lamiaceae,Spodoptera frugiperda,Spodoptera,Noctuidae,CropS,CropG,CropF
Vitex mollis,Vitex,Lamiaceae,Spodoptera frugiperda,Spodoptera,Noctuidae,CropS,CropG,CropF
Vitex negundo,Vitex,Lamiaceae,Agrotis spp.,Agrotis,Noctuidae,CropS,CropG,CropF
Vitex negundo,Vitex,Lamiaceae,Helicoverpa armigera,Helicoverpa,Noctuidae,CropS,CropG,CropF
Vitex negundo,Vitex,Lamiaceae,Spodoptera litura,Spodoptera,Noctuidae,CropS,CropG,CropF
Vitex polygama,Vitex,Lamiaceae,Spodoptera frugiperda,Spodoptera,Noctuidae,CropS,CropG,CropF
Vitex sp.,Vitex,Lamiaceae,Helicoverpa armigera,Helicoverpa,Noctuidae,CropS,CropG,CropF
Vitex sp.,Vitex,Lamiaceae,Spodoptera litura,Spodoptera,Noctuidae,CropS,CropG,CropF
Vitex trifolia,Vitex,Lamiaceae,Spodoptera frugiperda,Spodoptera,Noctuidae,CropS,CropG,CropF
Vitis vinifera,Vitis,Vitaceae,Spodoptera littoralis,Spodoptera,Noctuidae,CropS,CropG,CropF
Withania somnifera,Withania,Solanaceae,Spodoptera littoralis,Spodoptera,Noctuidae,CropS,CropG,CropF
Withania somnifera,Withania,Solanaceae,Spodoptera litura,Spodoptera,Noctuidae,CropS,CropG,CropF
Wollastonia dentata,Wollastonia,Asteraceae,Spodoptera litura,Spodoptera,Noctuidae,Ricinus communis,Ricinus,Euphorbiaceae
Xeranthemum cylindraceum,Xeranthemum,Asteraceae,Spodoptera littoralis,Spodoptera,Noctuidae,CropS,CropG,CropF
Xylopia brasiliensis,Xylopia,Annonaceae,Spodoptera frugiperda,Spodoptera,Noctuidae,CropS,CropG,CropF
Xylopia emarginata,Xylopia,Annonaceae,Spodoptera frugiperda,Spodoptera,Noctuidae,CropS,CropG,CropF
Xylopia sericea,Xylopia,Annonaceae,Spodoptera frugiperda,Spodoptera,Noctuidae,CropS,CropG,CropF
Yucca periculosa,Yucca,Asparagaceae,Spodoptera frugiperda,Spodoptera,Noctuidae,CropS,CropG,CropF
Zanthoxylum armatum,Zanthoxylum,Rutaceae,Spodoptera litura,Spodoptera,Noctuidae,CropS,CropG,CropF
Zanthoxylum gilletii,Zanthoxylum,Rutaceae,Spodoptera frugiperda,Spodoptera,Noctuidae,CropS,CropG,CropF
Zanthoxylum rhetsa,Zanthoxylum,Rutaceae,Spodoptera litura,Spodoptera,Noctuidae,CropS,CropG,CropF
Zea diploperennis,Zea,Poaceae,Spodoptera frugiperda,Spodoptera,Noctuidae,CropS,CropG,CropF
Zea mays,Zea,Poaceae,Spodoptera frugiperda,Spodoptera,Noctuidae,CropS,CropG,CropF
Zingiber officinale,Zingiber,Zingiberaceae,Anticarsia gemmatalis,Anticarsia,Noctuidae,CropFabaS,CropFabaG,Fabaceae
Zingiber officinale,Zingiber,Zingiberaceae,Spodoptera frugiperda,Spodoptera,Noctuidae,CropS,CropG,CropF
Zingiber officinale,Zingiber,Zingiberaceae,Spodoptera littoralis,Spodoptera,Noctuidae,CropS,CropG,CropF
Zygophyllum album,Zygophyllum,Zygophyllaceae,Spodoptera littoralis,Spodoptera,Noctuidae,CropS,CropG,CropF